####
#
# OBJ File Generated by Meshlab
#
####
# Object scie.obj
#
# Vertices: 218
# Faces: 196
#
####
vn 17095654952902994000000000000.000000 0.000000 0.000000
v 5.905512 0.000000 5.905512
vn 17095654952902994000000000000.000000 0.000000 0.000000
v 5.905512 0.000000 0.000000
vn 0.000000 1.570796 0.000000
v 0.000000 5.905512 5.905512
vn 0.000000 1.570796 0.000000
v 5.905512 5.905512 0.000000
vn 0.000000 1.570796 0.000000
v 0.000000 5.905512 0.000000
vn 0.000000 1.570796 0.000000
v 5.905512 5.905512 5.905512
vn 0.000000 0.000000 -1.570796
v 5.905512 5.905512 0.000000
vn 0.000000 0.000000 -1.570796
v 0.000000 0.000000 0.000000
vn 0.000000 0.000000 -1.570796
v 0.000000 5.905512 0.000000
vn 0.000000 0.000000 -1.570796
v 5.905512 0.000000 0.000000
vn -1.570796 0.000000 0.000000
v 0.000000 5.905512 5.905512
vn -1.570796 0.000000 0.000000
v 0.000000 0.000000 0.000000
vn -1.570796 0.000000 0.000000
v 0.000000 0.000000 5.905512
vn -1.570796 0.000000 0.000000
v 0.000000 5.905512 0.000000
vn 0.000000 0.000000 1.570796
v 5.905512 0.000000 5.905512
vn 0.000000 0.000000 1.570796
v 0.000000 5.905512 5.905512
vn 0.000000 0.000000 1.570796
v 0.000000 0.000000 5.905512
vn 0.000000 0.000000 1.570796
v 5.905512 5.905512 5.905512
vn 1.570796 0.000000 0.000000
v 5.905512 5.905512 0.000000
vn 1.570796 0.000000 0.000000
v 5.905512 0.000000 5.905512
vn 1.570796 0.000000 0.000000
v 5.905512 0.000000 0.000000
vn 1.570796 0.000000 0.000000
v 5.905512 5.905512 5.905512
vn 0.000000 -1.570796 0.000000
v 5.905512 0.000000 5.905512
vn 0.000000 -1.570796 0.000000
v 0.000000 0.000000 0.000000
vn 0.000000 -1.570796 0.000000
v 5.905512 0.000000 0.000000
vn 0.000000 -1.570796 0.000000
v 0.000000 0.000000 5.905512
vn 0.000000 2.879793 0.000000
v 2.666425 0.000000 1.884153
vn 0.000000 2.879793 0.000000
v 3.239087 0.000000 1.884153
vn 0.000000 2.879795 0.000000
v 2.952756 0.000000 1.846457
vn 0.000000 2.879794 0.000000
v 2.399606 0.000000 1.994673
vn 0.000000 2.879794 0.000000
v 3.505906 0.000000 1.994673
vn 0.000000 2.879791 0.000000
v 2.170484 0.000000 2.170484
vn 0.000000 2.879791 0.000000
v 3.735028 0.000000 2.170484
vn 0.000000 2.879794 0.000000
v 1.994673 0.000000 2.399606
vn 0.000000 2.879793 0.000000
v 3.910839 0.000000 2.399606
vn 0.000000 2.879793 0.000000
v 1.884153 0.000000 2.666425
vn 0.000000 2.879793 0.000000
v 4.021359 0.000000 2.666425
vn 0.000000 2.879795 0.000000
v 1.846457 0.000000 2.952756
vn 0.000000 2.879795 0.000000
v 4.059055 0.000000 2.952756
vn 0.000000 2.879793 0.000000
v 1.884153 0.000000 3.239087
vn 0.000000 2.879793 0.000000
v 4.021359 0.000000 3.239087
vn 0.000000 2.879794 0.000000
v 1.994673 0.000000 3.505906
vn 0.000000 2.879794 0.000000
v 3.910839 0.000000 3.505906
vn 0.000000 2.879791 0.000000
v 2.170484 0.000000 3.735028
vn 0.000000 2.879791 0.000000
v 3.735028 0.000000 3.735028
vn 0.000000 2.879793 0.000000
v 2.399606 0.000000 3.910839
vn 0.000000 2.879794 0.000000
v 3.505906 0.000000 3.910839
vn 0.000000 2.879793 0.000000
v 2.666425 0.000000 4.021359
vn 0.000000 2.879793 0.000000
v 3.239087 0.000000 4.021359
vn 0.000000 2.879796 0.000000
v 2.952756 0.000000 4.059055
vn 2.202437 0.000000 2.202437
v 3.735028 -3.944882 3.735028
vn 1.557356 0.000000 2.697425
v 3.505906 0.000000 3.910839
vn 1.557356 0.000000 2.697425
v 3.505906 -3.944882 3.910839
vn 2.202436 0.000000 2.202436
v 3.735028 0.000000 3.735028
vn 2.697424 0.000000 1.557356
v 3.910839 0.000000 3.505906
vn 2.697425 0.000000 1.557356
v 3.910839 -3.944882 3.505906
vn 3.008585 0.000000 0.806145
v 4.021359 0.000000 3.239087
vn 3.008585 0.000000 0.806145
v 4.021359 -3.944882 3.239087
vn 3.114717 0.000000 -0.000000
v 4.059055 0.000000 2.952756
vn 3.114717 0.000000 -0.000000
v 4.059055 -3.944882 2.952756
vn 3.008585 0.000000 -0.806145
v 4.021359 0.000000 2.666425
vn 3.008585 0.000000 -0.806145
v 4.021359 -3.944882 2.666425
vn 2.697424 0.000000 -1.557356
v 3.910839 0.000000 2.399606
vn 2.697424 0.000000 -1.557356
v 3.910839 -3.944882 2.399606
vn 2.202437 0.000000 -2.202437
v 3.735028 0.000000 2.170484
vn 2.202436 0.000000 -2.202436
v 3.735028 -3.944882 2.170484
vn 1.557357 0.000000 -2.697424
v 3.505906 -3.944882 1.994673
vn 1.557356 0.000000 -2.697424
v 3.505906 0.000000 1.994673
vn 0.806147 0.000000 -3.008585
v 3.239087 -3.944882 1.884153
vn 0.806147 0.000000 -3.008585
v 3.239087 0.000000 1.884153
vn -0.000000 0.000000 -3.114716
v 2.952756 -3.944882 1.846457
vn -0.000000 0.000000 -3.114717
v 2.952756 0.000000 1.846457
vn -0.806147 0.000000 -3.008585
v 2.666425 -3.944882 1.884153
vn -0.806147 0.000000 -3.008585
v 2.666425 0.000000 1.884153
vn -1.557356 0.000000 -2.697424
v 2.399606 -3.944882 1.994673
vn -1.557357 0.000000 -2.697424
v 2.399606 0.000000 1.994673
vn -2.202437 0.000000 -2.202437
v 2.170484 -3.944882 2.170484
vn -2.202436 0.000000 -2.202436
v 2.170484 0.000000 2.170484
vn -2.697424 0.000000 -1.557356
v 1.994673 0.000000 2.399606
vn -2.697424 0.000000 -1.557356
v 1.994673 -3.944882 2.399606
vn -3.008585 0.000000 -0.806147
v 1.884153 0.000000 2.666425
vn -3.008585 0.000000 -0.806147
v 1.884153 -3.944882 2.666425
vn -3.114716 0.000000 -0.000000
v 1.846457 0.000000 2.952756
vn -3.114716 0.000000 -0.000000
v 1.846457 -3.944882 2.952756
vn -3.008585 0.000000 0.806146
v 1.884153 0.000000 3.239087
vn -3.008585 0.000000 0.806146
v 1.884153 -3.944882 3.239087
vn -2.697424 0.000000 1.557356
v 1.994673 0.000000 3.505906
vn -2.697424 0.000000 1.557356
v 1.994673 -3.944882 3.505906
vn -2.202437 0.000000 2.202437
v 2.170484 0.000000 3.735028
vn -2.202436 0.000000 2.202436
v 2.170484 -3.944882 3.735028
vn -1.557356 0.000000 2.697425
v 2.399606 -3.944882 3.910839
vn -1.557356 0.000000 2.697425
v 2.399606 0.000000 3.910839
vn -0.806145 0.000000 3.008585
v 2.666425 -3.944882 4.021359
vn -0.806145 0.000000 3.008585
v 2.666425 0.000000 4.021359
vn -0.000000 0.000000 3.114717
v 2.952756 -3.944882 4.059055
vn -0.000000 0.000000 3.114717
v 2.952756 0.000000 4.059055
vn 0.806145 0.000000 3.008585
v 3.239087 -3.944882 4.021359
vn 0.806145 0.000000 3.008585
v 3.239087 0.000000 4.021359
vn 0.000000 -2.879793 0.000000
v 3.239087 -3.944882 1.884153
vn 0.000000 -2.879793 0.000000
v 2.666425 -3.944882 1.884153
vn 0.000000 -2.879795 0.000000
v 2.952756 -3.944882 1.846457
vn 0.000000 -2.879794 0.000000
v 2.399606 -3.944882 1.994673
vn 0.000000 -2.879794 0.000000
v 3.505906 -3.944882 1.994673
vn 0.000000 -2.879791 0.000000
v 2.170484 -3.944882 2.170484
vn 0.000000 -2.879791 0.000000
v 3.735028 -3.944882 2.170484
vn 0.000000 -2.879794 0.000000
v 1.994673 -3.944882 2.399606
vn 0.000000 -2.879793 0.000000
v 3.910839 -3.944882 2.399606
vn 0.000000 -2.879793 0.000000
v 1.884153 -3.944882 2.666425
vn 0.000000 -2.879793 0.000000
v 4.021359 -3.944882 2.666425
vn 0.000000 -2.879795 0.000000
v 1.846457 -3.944882 2.952756
vn 0.000000 -2.879796 0.000000
v 4.059055 -3.944882 2.952756
vn 0.000000 -2.879792 0.000000
v 4.021359 -3.944882 3.239087
vn 0.000000 -2.879793 0.000000
v 1.884153 -3.944882 3.239087
vn 0.000000 -2.879794 0.000000
v 1.994673 -3.944882 3.505906
vn 0.000000 -2.879794 0.000000
v 3.910839 -3.944882 3.505906
vn 0.000000 -2.879791 0.000000
v 2.170484 -3.944882 3.735028
vn 0.000000 -2.879791 0.000000
v 3.735028 -3.944882 3.735028
vn 0.000000 -2.879794 0.000000
v 2.399606 -3.944882 3.910839
vn 0.000000 -2.879794 0.000000
v 3.505906 -3.944882 3.910839
vn 0.000000 -2.879793 0.000000
v 2.666425 -3.944882 4.021359
vn 0.000000 -2.879793 0.000000
v 3.239087 -3.944882 4.021359
vn 0.000000 -2.879796 0.000000
v 2.952756 -3.944882 4.059055
vn 3.008584 0.000000 -0.806147
v 7.395398 -3.944882 1.757425
vn 3.114716 0.000000 0.000000
v 7.551522 -4.279528 2.943307
vn 3.008585 0.000000 -0.806147
v 7.395398 -4.279528 1.757425
vn 3.114716 0.000000 0.000000
v 7.551522 -3.944882 2.943307
vn 0.000000 2.879793 0.000000
v 1.783746 -3.944882 -1.482463
vn 0.000000 2.879793 0.000000
v 4.155509 -3.944882 -1.482463
vn 0.000000 2.879794 0.000000
v 2.969627 -3.944882 -1.638587
vn 0.000000 2.879793 0.000000
v 0.678680 -3.944882 -1.024730
vn 0.000000 2.879794 0.000000
v 5.260574 -3.944882 -1.024730
vn 0.000000 2.879793 0.000000
v -0.270261 -3.944882 -0.296582
vn 0.000000 2.879793 0.000000
v 6.209516 -3.944882 -0.296582
vn 0.000000 2.879793 0.000000
v -0.998410 -3.944882 0.652360
vn 0.000000 2.879793 0.000000
v 6.937665 -3.944882 0.652360
vn 0.000000 2.879793 0.000000
v -1.456143 -3.944882 1.757425
vn 0.000000 2.879792 0.000000
v 7.395398 -3.944882 1.757425
vn 0.000000 2.879794 0.000000
v -1.612267 -3.944882 2.943307
vn 0.000000 2.879795 0.000000
v 7.551522 -3.944882 2.943307
vn 0.000000 2.879793 0.000000
v -1.456143 -3.944882 4.129188
vn 0.000000 2.879793 0.000000
v 7.395398 -3.944882 4.129188
vn 0.000000 2.879792 0.000000
v -0.998410 -3.944882 5.234254
vn 0.000000 2.879793 0.000000
v 6.937665 -3.944882 5.234254
vn 0.000000 2.879794 0.000000
v -0.270261 -3.944882 6.183195
vn 0.000000 2.879793 0.000000
v 6.209516 -3.944882 6.183195
vn 0.000000 2.879792 0.000000
v 0.678680 -3.944882 6.911344
vn 0.000000 2.879793 0.000000
v 5.260574 -3.944882 6.911344
vn 0.000000 2.879792 0.000000
v 1.783746 -3.944882 7.369077
vn 0.000000 2.879792 0.000000
v 4.155509 -3.944882 7.369077
vn 0.000000 2.879794 0.000000
v 2.969627 -3.944882 7.525201
vn 3.008585 0.000000 0.806147
v 7.395398 -4.279528 4.129188
vn 3.008585 0.000000 0.806147
v 7.395398 -3.944882 4.129188
vn 0.000000 -2.879793 0.000000
v 4.155509 -4.279528 -1.482463
vn 0.000000 -2.879793 0.000000
v 1.783746 -4.279528 -1.482463
vn 0.000000 -2.879794 0.000000
v 2.969627 -4.279528 -1.638587
vn 0.000000 -2.879793 0.000000
v 0.678680 -4.279528 -1.024730
vn 0.000000 -2.879794 0.000000
v 5.260574 -4.279528 -1.024730
vn 0.000000 -2.879793 0.000000
v -0.270261 -4.279528 -0.296582
vn 0.000000 -2.879793 0.000000
v 6.209516 -4.279528 -0.296582
vn 0.000000 -2.879793 0.000000
v -0.998410 -4.279528 0.652360
vn 0.000000 -2.879793 0.000000
v 6.937665 -4.279528 0.652360
vn 0.000000 -2.879793 0.000000
v -1.456143 -4.279528 1.757425
vn 0.000000 -2.879792 0.000000
v 7.395398 -4.279528 1.757425
vn 0.000000 -2.879794 0.000000
v -1.612267 -4.279528 2.943307
vn 0.000000 -2.879795 0.000000
v 7.551522 -4.279528 2.943307
vn 0.000000 -2.879793 0.000000
v -1.456143 -4.279528 4.129188
vn 0.000000 -2.879793 0.000000
v 7.395398 -4.279528 4.129188
vn 0.000000 -2.879793 0.000000
v -0.998410 -4.279528 5.234254
vn 0.000000 -2.879793 0.000000
v 6.937665 -4.279528 5.234254
vn 0.000000 -2.879794 0.000000
v -0.270261 -4.279528 6.183195
vn 0.000000 -2.879793 0.000000
v 6.209516 -4.279528 6.183195
vn 0.000000 -2.879792 0.000000
v 0.678680 -4.279528 6.911344
vn 0.000000 -2.879793 0.000000
v 5.260574 -4.279528 6.911344
vn 0.000000 -2.879792 0.000000
v 4.155509 -4.279528 7.369077
vn 0.000000 -2.879793 0.000000
v 1.783746 -4.279528 7.369077
vn 0.000000 -2.879794 0.000000
v 2.969627 -4.279528 7.525201
vn 2.697423 0.000000 -1.557359
v 6.937665 -3.944882 0.652360
vn 2.697423 0.000000 -1.557358
v 6.937665 -4.279528 0.652360
vn -1.557359 0.000000 2.697423
v 0.678680 -4.279528 6.911344
vn -2.202437 0.000000 2.202437
v -0.270261 -3.944882 6.183195
vn -2.202437 0.000000 2.202437
v -0.270261 -4.279528 6.183195
vn -1.557359 0.000000 2.697423
v 0.678680 -3.944882 6.911344
vn -0.806147 0.000000 3.008584
v 1.783746 -4.279528 7.369077
vn -0.806147 0.000000 3.008585
v 1.783746 -3.944882 7.369077
vn -0.000000 0.000000 3.114716
v 2.969627 -4.279528 7.525201
vn -0.000000 0.000000 3.114716
v 2.969627 -3.944882 7.525201
vn 0.806147 0.000000 3.008584
v 4.155509 -4.279528 7.369077
vn 0.806147 0.000000 3.008584
v 4.155509 -3.944882 7.369077
vn 1.557358 0.000000 2.697423
v 5.260574 -4.279528 6.911344
vn 1.557358 0.000000 2.697423
v 5.260574 -3.944882 6.911344
vn 2.202436 0.000000 2.202437
v 6.209516 -4.279528 6.183195
vn 2.202436 0.000000 2.202437
v 6.209516 -3.944882 6.183195
vn 2.697423 0.000000 1.557359
v 6.937665 -3.944882 5.234254
vn 2.697423 0.000000 1.557359
v 6.937665 -4.279528 5.234254
vn 2.202436 0.000000 -2.202437
v 6.209516 -3.944882 -0.296582
vn 2.202436 0.000000 -2.202438
v 6.209516 -4.279528 -0.296582
vn 1.557357 0.000000 -2.697424
v 5.260574 -4.279528 -1.024730
vn 1.557357 0.000000 -2.697424
v 5.260574 -3.944882 -1.024730
vn 0.806147 0.000000 -3.008584
v 4.155509 -4.279528 -1.482463
vn 0.806148 0.000000 -3.008584
v 4.155509 -3.944882 -1.482463
vn -0.000000 0.000000 -3.114716
v 2.969627 -4.279528 -1.638587
vn -0.000000 0.000000 -3.114716
v 2.969627 -3.944882 -1.638587
vn -0.806147 0.000000 -3.008585
v 1.783746 -4.279528 -1.482463
vn -0.806147 0.000000 -3.008584
v 1.783746 -3.944882 -1.482463
vn -1.557357 0.000000 -2.697423
v 0.678680 -4.279528 -1.024730
vn -1.557357 0.000000 -2.697423
v 0.678680 -3.944882 -1.024730
vn -2.202436 0.000000 -2.202437
v -0.270261 -4.279528 -0.296582
vn -2.202437 0.000000 -2.202437
v -0.270261 -3.944882 -0.296582
vn -2.697423 0.000000 -1.557358
v -0.998410 -3.944882 0.652360
vn -2.697423 0.000000 -1.557358
v -0.998410 -4.279528 0.652360
vn -3.008585 0.000000 -0.806148
v -1.456143 -3.944882 1.757425
vn -3.008584 0.000000 -0.806148
v -1.456143 -4.279528 1.757425
vn -3.114716 0.000000 0.000000
v -1.612267 -3.944882 2.943307
vn -3.114716 0.000000 0.000000
v -1.612267 -4.279528 2.943307
vn -3.008585 0.000000 0.806147
v -1.456143 -3.944882 4.129188
vn -3.008585 0.000000 0.806147
v -1.456143 -4.279528 4.129188
vn -2.697423 0.000000 1.557358
v -0.998410 -3.944882 5.234254
vn -2.697423 0.000000 1.557358
v -0.998410 -4.279528 5.234254
# 218 vertices, 0 vertices normals

f 3//3 4//4 5//5
f 4//4 3//3 6//6
f 7//7 8//8 9//9
f 8//8 7//7 10//10
f 11//11 12//12 13//13
f 12//12 11//11 14//14
f 15//15 16//16 17//17
f 16//16 15//15 18//18
f 19//19 20//20 21//21
f 20//20 19//19 22//22
f 23//23 24//24 25//25
f 24//24 23//23 26//26
f 27//27 28//28 29//29
f 28//28 27//27 30//30
f 28//28 30//30 31//31
f 31//31 30//30 32//32
f 31//31 32//32 33//33
f 33//33 32//32 34//34
f 33//33 34//34 35//35
f 35//35 34//34 36//36
f 35//35 36//36 37//37
f 37//37 36//36 38//38
f 37//37 38//38 39//39
f 39//39 38//38 40//40
f 39//39 40//40 41//41
f 41//41 40//40 42//42
f 41//41 42//42 43//43
f 43//43 42//42 44//44
f 43//43 44//44 45//45
f 45//45 44//44 46//46
f 45//45 46//46 47//47
f 47//47 46//46 48//48
f 47//47 48//48 49//49
f 49//49 48//48 50//50
f 51//51 52//52 53//53
f 52//52 51//51 54//54
f 55//55 51//51 56//56
f 51//51 55//55 54//54
f 57//57 56//56 58//58
f 56//56 57//57 55//55
f 59//59 58//58 60//60
f 58//58 59//59 57//57
f 61//61 60//60 62//62
f 60//60 61//61 59//59
f 63//63 62//62 64//64
f 62//62 63//63 61//61
f 65//65 64//64 66//66
f 64//64 65//65 63//63
f 65//65 67//67 68//68
f 67//67 65//65 66//66
f 68//68 69//69 70//70
f 69//69 68//68 67//67
f 70//70 71//71 72//72
f 71//71 70//70 69//69
f 72//72 73//73 74//74
f 73//73 72//72 71//71
f 74//74 75//75 76//76
f 75//75 74//74 73//73
f 76//76 77//77 78//78
f 77//77 76//76 75//75
f 79//79 77//77 80//80
f 77//77 79//79 78//78
f 81//81 80//80 82//82
f 80//80 81//81 79//79
f 83//83 82//82 84//84
f 82//82 83//83 81//81
f 85//85 84//84 86//86
f 84//84 85//85 83//83
f 87//87 86//86 88//88
f 86//86 87//87 85//85
f 89//89 88//88 90//90
f 88//88 89//89 87//87
f 91//91 89//89 90//90
f 89//89 91//91 92//92
f 93//93 92//92 91//91
f 92//92 93//93 94//94
f 95//95 94//94 93//93
f 94//94 95//95 96//96
f 97//97 96//96 95//95
f 96//96 97//97 98//98
f 53//53 98//98 97//97
f 98//98 53//53 52//52
f 99//99 100//100 101//101
f 100//100 99//99 102//102
f 102//102 99//99 103//103
f 102//102 103//103 104//104
f 104//104 103//103 105//105
f 104//104 105//105 106//106
f 106//106 105//105 107//107
f 106//106 107//107 108//108
f 108//108 107//107 109//109
f 108//108 109//109 110//110
f 110//110 109//109 111//111
f 110//110 111//111 112//112
f 110//110 112//112 113//113
f 113//113 112//112 114//114
f 114//114 112//112 115//115
f 114//114 115//115 116//116
f 116//116 115//115 117//117
f 116//116 117//117 118//118
f 118//118 117//117 119//119
f 118//118 119//119 120//120
f 120//120 119//119 121//121
f 120//120 121//121 122//122
f 123//123 124//124 125//125
f 124//124 123//123 126//126
f 127//127 128//128 129//129
f 128//128 127//127 130//130
f 128//128 130//130 131//131
f 131//131 130//130 132//132
f 131//131 132//132 133//133
f 133//133 132//132 134//134
f 133//133 134//134 135//135
f 135//135 134//134 136//136
f 135//135 136//136 137//137
f 137//137 136//136 138//138
f 137//137 138//138 139//139
f 139//139 138//138 140//140
f 139//139 140//140 141//141
f 141//141 140//140 142//142
f 141//141 142//142 143//143
f 143//143 142//142 144//144
f 143//143 144//144 145//145
f 145//145 144//144 146//146
f 145//145 146//146 147//147
f 147//147 146//146 148//148
f 147//147 148//148 149//149
f 149//149 148//148 150//150
f 126//126 151//151 124//124
f 151//151 126//126 152//152
f 153//153 154//154 155//155
f 154//154 153//153 156//156
f 156//156 153//153 157//157
f 156//156 157//157 158//158
f 158//158 157//157 159//159
f 158//158 159//159 160//160
f 160//160 159//159 161//161
f 160//160 161//161 162//162
f 162//162 161//161 163//163
f 162//162 163//163 164//164
f 164//164 163//163 165//165
f 164//164 165//165 166//166
f 166//166 165//165 167//167
f 166//166 167//167 168//168
f 168//168 167//167 169//169
f 168//168 169//169 170//170
f 170//170 169//169 171//171
f 170//170 171//171 172//172
f 172//172 171//171 173//173
f 172//172 173//173 174//174
f 172//172 174//174 175//175
f 175//175 174//174 176//176
f 177//177 125//125 178//178
f 125//125 177//177 123//123
f 179//179 180//180 181//181
f 180//180 179//179 182//182
f 183//183 182//182 179//179
f 182//182 183//183 184//184
f 185//185 184//184 183//183
f 184//184 185//185 186//186
f 187//187 186//186 185//185
f 186//186 187//187 188//188
f 189//189 188//188 187//187
f 188//188 189//189 190//190
f 191//191 190//190 189//189
f 190//190 191//191 192//192
f 193//193 191//191 194//194
f 191//191 193//193 192//192
f 152//152 194//194 151//151
f 194//194 152//152 193//193
f 195//195 178//178 196//196
f 178//178 195//195 177//177
f 195//195 197//197 198//198
f 197//197 195//195 196//196
f 198//198 199//199 200//200
f 199//199 198//198 197//197
f 200//200 201//201 202//202
f 201//201 200//200 199//199
f 202//202 203//203 204//204
f 203//203 202//202 201//201
f 204//204 205//205 206//206
f 205//205 204//204 203//203
f 206//206 207//207 208//208
f 207//207 206//206 205//205
f 209//209 207//207 210//210
f 207//207 209//209 208//208
f 211//211 210//210 212//212
f 210//210 211//211 209//209
f 213//213 212//212 214//214
f 212//212 213//213 211//211
f 215//215 214//214 216//216
f 214//214 215//215 213//213
f 217//217 216//216 218//218
f 216//216 217//217 215//215
f 180//180 218//218 181//181
f 218//218 180//180 217//217
# 196 faces, 0 coords texture

# End of File