####
#
# OBJ File Generated by Meshlab
#
####
# Object kuka_link5.obj
#
# Vertices: 634
# Faces: 1412
#
####
vn -1.669819 -1.689123 1.830322
v 1193.040039 -171.753006 1812.989990
vn 1.922727 -4.595787 1.171344
v 1199.310059 -171.919998 1767.989990
vn 1.441991 -1.456494 1.301200
v 1207.060059 -172.449997 1813.310059
vn -1.611733 -1.488929 -1.610843
v 1193.670044 -171.514999 1729.010010
vn 1.921283 -2.475801 2.067804
v 1205.400024 -172.214005 1765.469971
vn 2.872035 -2.903205 0.649724
v 1208.020020 -172.324005 1759.410034
vn 1.525394 -1.643329 -1.540639
v 1208.689941 -172.261002 1729.339966
vn 1.680919 1.493979 -1.530653
v 1209.479980 -156.328995 1729.390015
vn -1.455990 1.649177 -1.599454
v 1194.449951 -155.582001 1729.060059
vn -3.268377 -3.186082 -0.394226
v 1193.209961 -171.557999 1749.680054
vn -2.964180 -3.451715 -1.293538
v 1192.829956 -171.544998 1751.349976
vn -0.279462 -6.085707 0.280945
v 1185.290039 -171.223007 1767.689941
vn -1.349305 4.736777 1.850801
v 1193.829956 -155.820999 1813.050049
vn 1.715899 4.051425 1.317829
v 1207.859985 -156.518005 1813.359985
vn 2.399152 4.988567 1.202647
v 1200.109985 -155.987000 1768.040039
vn 2.157417 2.260838 2.083039
v 1206.189941 -156.281998 1765.520020
vn 3.144477 2.600725 0.667475
v 1208.810059 -156.391998 1759.459961
vn -2.834072 3.675690 -0.656499
v 1193.989990 -155.626007 1749.729980
vn -2.159830 -3.612644 -2.307922
v 1191.849976 -171.500000 1752.750000
vn -1.736101 5.584065 -2.076715
v 1192.640015 -155.567993 1752.800049
vn 0.362851 6.864044 0.322468
v 1186.079956 -155.291000 1767.739990
vn -0.013373 10.642612 -2.996966
v 1189.520020 -155.417007 1754.030029
vn 1.992009 7.769448 -1.511053
v 1186.390015 -155.261993 1753.959961
vn 1.370410 -4.781218 -1.550158
v 1185.589966 -171.194000 1753.900024
vn 1.680807 1.492934 -1.529901
v 1186.949951 -155.209000 1728.890015
vn 1.525362 -1.644267 -1.541149
v 1186.150024 -171.141006 1728.839966
vn -1.611756 -1.487950 -1.610299
v 1171.140015 -170.395004 1728.510010
vn -1.680792 -1.492884 1.529801
v 1169.260010 -170.572006 1812.469971
vn -1.525256 1.644228 1.541038
v 1170.060059 -154.639008 1812.520020
vn 1.611860 1.488077 1.610534
v 1185.069946 -155.386002 1812.849976
vn 1.455900 -1.650242 1.600299
v 1184.280029 -171.317993 1812.800049
vn -0.252746 -3.275772 -3.144182
v 1188.719971 -171.350006 1753.969971
vn -0.828346 -3.614029 -3.003606
v 1189.270020 -171.376999 1753.949951
vn -1.455940 1.650159 -1.600147
v 1171.930054 -154.462997 1728.560059
vn 2.829341 -3.680520 0.655723
v 1247.099976 -174.229996 1749.000000
vn -2.119311 -2.246241 -2.105160
v 1237.880005 -173.729004 1735.489990
vn 1.808108 -4.029323 2.084643
v 1248.260010 -174.279007 1746.359985
vn 1.455915 -1.650104 1.600091
v 1245.650024 -174.367004 1814.160034
vn 1.611712 1.487952 1.610207
v 1246.439941 -158.434998 1814.209961
vn 3.179675 3.378352 0.678475
v 1247.890015 -158.298004 1749.050049
vn 2.195364 3.818550 2.111147
v 1249.050049 -158.347000 1746.410034
vn -1.886186 2.457823 -2.089325
v 1238.670044 -157.796997 1735.540039
vn 0.125575 3.915279 2.914020
v 1251.739990 -158.475998 1745.369995
vn -0.257638 -3.925717 2.890188
v 1250.939941 -174.408997 1745.319946
vn -0.051797 -2.348750 -2.910185
v 1251.280029 -174.376999 1730.290039
vn -2.867512 2.898877 -0.658821
v 1232.880005 -157.550995 1748.719971
vn -3.139473 -2.591992 -0.677361
v 1232.079956 -173.483994 1748.660034
vn -1.680877 -1.494017 1.530652
v 1230.630005 -173.621002 1813.829956
vn -1.525404 1.643357 1.540667
v 1231.420044 -157.688995 1813.880005
vn 0.181545 2.360573 -2.895085
v 1252.069946 -158.445007 1730.339966
vn 1.977492 -2.451025 -2.014317
v 1264.430054 -175.048004 1736.079956
vn -3.206038 -3.383383 0.522855
v 1254.619995 -174.602997 1749.160034
vn -1.680856 -1.493881 1.530409
v 1253.160034 -174.740997 1814.329956
vn 1.455907 -1.650104 1.600078
v 1268.180054 -175.487000 1814.660034
vn 2.894488 -2.896219 -0.542250
v 1269.630005 -175.350006 1749.500000
vn 2.210457 2.253293 -1.998402
v 1265.229980 -159.115997 1736.130005
vn -2.857145 3.675291 0.543720
v 1255.400024 -158.671005 1749.219971
vn -1.904174 4.017874 2.017766
v 1254.359985 -158.610992 1746.530029
vn -2.287108 -3.826440 1.994257
v 1253.579956 -174.542999 1746.479980
vn -1.525315 1.643189 1.540439
v 1253.949951 -158.807999 1814.380005
vn 1.611823 1.487949 1.610329
v 1268.969971 -159.554993 1814.709961
vn 3.166858 2.595205 -0.524454
v 1270.430054 -159.417007 1749.550049
vn -1.668342 -1.689065 1.831108
v 1316.890015 -177.906998 1815.739990
vn 1.922448 -4.596111 1.171456
v 1323.150024 -178.072998 1770.739990
vn 1.443079 -1.456059 1.300294
v 1330.910034 -178.602997 1816.050049
vn -1.611704 -1.487942 -1.610204
v 1317.510010 -177.667999 1731.760010
vn 1.921145 -2.476389 2.067506
v 1329.239990 -178.367996 1768.219971
vn 2.872589 -2.903239 0.649580
v 1331.859985 -178.477005 1762.160034
vn 1.525395 -1.643313 -1.540625
v 1332.530029 -178.414001 1732.089966
vn 1.680985 1.493988 -1.530689
v 1333.319946 -162.481995 1732.140015
vn -1.455829 1.650202 -1.600355
v 1318.300049 -161.735001 1731.810059
vn -3.269614 -3.185624 -0.394696
v 1317.050049 -177.710999 1752.430054
vn -2.964170 -3.451803 -1.293763
v 1316.670044 -177.697998 1754.099976
vn -0.279276 -6.085671 0.281030
v 1309.130005 -177.376999 1770.439941
vn -1.350250 4.737152 1.850604
v 1317.670044 -161.975006 1815.790039
vn 1.716194 4.052577 1.318028
v 1331.699951 -162.671005 1816.099976
vn 2.398471 4.989339 1.203295
v 1323.949951 -162.141006 1770.790039
vn 2.157078 2.257862 2.080672
v 1330.040039 -162.434998 1768.270020
vn 3.145507 2.601404 0.665902
v 1332.650024 -162.544998 1762.209961
vn -2.836828 3.673347 -0.653737
v 1317.829956 -161.779007 1752.479980
vn -2.147159 -3.615923 -2.305917
v 1315.689941 -177.654007 1755.500000
vn -1.733741 5.597434 -2.074377
v 1316.489990 -161.722000 1755.550049
vn 0.363260 6.865160 0.322394
v 1309.920044 -161.444000 1770.489990
vn -0.008662 10.628892 -3.000736
v 1313.359985 -161.570999 1756.770020
vn 1.994089 7.768357 -1.510656
v 1310.229980 -161.414993 1756.699951
vn 1.370026 -4.782158 -1.549861
v 1309.430054 -177.348007 1756.650024
vn 1.680806 1.492930 -1.529893
v 1310.790039 -161.362000 1731.640015
vn 1.525258 -1.644274 -1.541098
v 1309.989990 -177.294998 1731.589966
vn -1.611858 -1.487945 -1.610369
v 1294.979980 -176.548004 1731.260010
vn -1.682106 -1.493923 1.529816
v 1293.099976 -176.725006 1815.209961
vn -1.524698 1.643218 1.541078
v 1293.900024 -160.792007 1815.270020
vn 1.611259 1.486410 1.609487
v 1308.920044 -161.539001 1815.599976
vn 1.454729 -1.650275 1.600566
v 1308.119995 -177.472000 1815.550049
vn -0.277272 -3.288727 -3.142749
v 1312.560059 -177.503006 1756.719971
vn -0.855564 -3.584736 -3.006755
v 1313.109985 -177.529999 1756.689941
vn -1.455941 1.650159 -1.600147
v 1295.770020 -160.615997 1731.310059
vn 3.059595 -1.134835 5.292665
v 1221.439941 -20.067600 1858.959961
vn 7.604702 0.679261 6.900562
v 1225.170044 -26.053400 1854.040039
vn 5.195027 0.987328 3.981882
v 1232.660034 -18.995800 1844.219971
vn 1.571566 -0.783837 6.434851
v 1225.170044 -26.219400 1854.040039
vn -0.656919 -3.072539 4.639356
v 1219.260010 -21.931101 1858.510010
vn -0.011941 -1.353331 5.925051
v 1222.709961 -27.595600 1853.979980
vn 0.572689 1.353169 5.837521
v 1263.540039 -79.797401 1854.780029
vn 2.320685 4.624269 2.777789
v 1268.910034 -69.774696 1844.920044
vn 0.345308 10.192847 2.375586
v 1403.380005 -69.731300 1847.920044
vn 0.673194 2.030370 5.127365
v 1403.160034 -79.752296 1857.890015
vn -1.709095 -1.538352 4.638598
v 1126.250000 -132.567001 1851.609985
vn 0.677184 -2.050901 5.119429
v 1403.180054 -146.251999 1857.750000
vn -0.164286 -2.116530 5.326354
v 1401.680054 -146.253006 1857.719971
vn -2.144306 -2.926559 3.234518
v 1115.079956 -143.417007 1839.900024
vn -2.617972 -3.075059 2.321685
v 1105.560059 -145.839005 1829.939941
vn -3.767051 -2.156761 1.217160
v 1101.819946 -144.296997 1826.030029
vn -1.089525 -5.963924 0.614869
v 1122.130005 -152.257996 1811.459961
vn -1.060525 -5.961178 -0.687822
v 1124.000000 -152.080994 1727.489990
vn -0.131401 -6.131397 -0.914040
v 1403.959961 -165.992004 1733.699951
vn -1.997176 -2.914055 -3.339654
v 1118.229980 -143.119995 1698.800049
vn -2.510746 -3.055245 -2.449219
v 1108.270020 -145.582993 1708.310059
vn -3.708943 -2.151163 -1.392910
v 1104.359985 -144.057007 1712.060059
vn -4.675650 -1.568946 -1.678853
v 1103.989990 -96.590103 1727.819946
vn -4.745796 -1.576060 1.458756
v 1102.150024 -96.764198 1810.479980
vn -2.353944 -1.211795 2.518357
v 1102.140015 -83.070999 1810.500000
vn -3.670623 -2.855524 3.485584
v 1101.790039 -73.281898 1826.180054
vn -1.649934 1.535600 4.630075
v 1126.229980 -79.841698 1851.719971
vn -0.500927 0.173607 6.213008
v 1155.459961 -79.832298 1852.369995
vn -0.759919 -1.850409 6.382063
v 1129.670044 -43.715500 1851.869995
vn 0.058953 -0.882231 7.752469
v 1212.689941 -43.688702 1853.719971
vn 1.828091 -0.576886 5.862654
v 1215.689941 -36.907398 1853.800049
vn 3.666514 -1.345330 2.207669
v 1215.689941 -23.473000 1853.829956
vn 3.765284 -1.244123 2.857097
v 1215.569946 -19.297701 1859.010010
vn 3.449543 -0.201426 3.141050
v 1215.530029 -11.190600 1860.790039
vn 2.381579 -0.505488 4.993466
v 1220.579956 -14.792300 1860.089966
vn 1.737519 -0.682766 5.787296
v 1216.260010 0.172898 1860.709961
vn 3.933713 0.077004 3.837409
v 1219.880005 27.675200 1860.270020
vn 3.950751 -0.443629 4.772795
v 1215.500000 7.037060 1861.630005
vn 7.302301 -0.816724 1.264664
v 1215.510010 0.171101 1861.430054
vn 5.404551 -0.217822 2.454367
v 1215.500000 0.170154 1861.880005
vn 1.927727 -0.805391 6.262396
v 1212.430054 0.162872 1864.810059
vn -0.001749 0.246873 7.794106
v 1212.439941 7.129580 1864.569946
vn 0.250872 0.143459 6.683298
v 1212.069946 3.212030 1864.760010
vn 1.334055 -0.711281 5.883772
v 1225.479980 57.995499 1865.170044
vn -1.936584 1.193898 5.204978
v 1135.439941 42.640099 1863.130005
vn -1.537008 1.838937 5.203065
v 1180.300049 87.536797 1864.229980
vn -3.919546 3.593565 2.208517
v 1130.430054 48.780399 1855.030029
vn -3.205199 4.110064 2.027787
v 1175.560059 93.953697 1856.130005
vn -0.736373 2.308620 5.093364
v 1283.500000 147.186005 1866.660034
vn 0.339081 -1.717033 5.740004
v 1311.160034 127.195000 1867.229980
vn 0.618015 2.078899 5.140851
v 1402.829956 147.223999 1869.319946
vn 0.264482 -0.275131 6.128176
v 1402.839966 127.223999 1869.270020
vn 0.318163 -4.544189 2.786350
v 1325.449951 127.205002 1864.849976
vn 2.622218 -5.550723 2.085382
v 1285.719971 112.315002 1861.630005
vn 1.706240 -2.303189 7.946275
v 1260.680054 102.049004 1866.050049
vn 4.681744 -3.874344 2.277199
v 1243.579956 77.405403 1860.619995
vn 3.109076 4.127784 6.503926
v 1220.229980 27.907400 1859.989990
vn 5.101135 -1.738624 1.458883
v 1230.359985 55.606998 1842.400024
vn 1.790657 -2.517324 -3.615492
v 1274.979980 105.921997 1843.469971
vn 4.448720 -0.974978 0.894088
v 1230.380005 55.650101 1842.369995
vn 1.203475 -3.078252 -2.760285
v 1231.420044 93.741898 1842.479980
vn 1.600354 -2.584679 -2.557209
v 1339.089966 126.075996 1844.939941
vn 1.157353 -5.793850 -0.795609
v 1340.209961 127.251999 1844.969971
vn 0.844483 -2.925265 -2.605918
v 1289.380005 127.236000 1843.839966
vn 4.480978 -3.325468 0.823686
v 1275.150024 118.362999 1783.670044
vn 0.727258 -2.934370 2.628678
v 1292.569946 127.537003 1700.770020
vn 4.511216 -3.323054 -0.638563
v 1275.599976 118.406998 1763.209961
vn 5.960286 0.694949 1.052926
v 1275.180054 28.856701 1783.479980
vn 6.001948 0.623861 -0.787075
v 1275.640015 28.899700 1763.030029
vn 1.324278 4.089837 -2.456759
v 1231.349976 29.017401 1699.130005
vn 3.072474 3.062645 -0.253470
v 1275.680054 28.903299 1761.329956
vn 4.755105 1.660267 -1.789381
v 1275.750000 26.910500 1757.920044
vn 2.947042 1.552894 -3.924153
v 1222.780029 27.051201 1681.489990
vn 3.226471 2.908794 -2.230761
v 1240.579956 15.504000 1707.140015
vn 4.395941 2.053280 -0.545400
v 1246.619995 11.094500 1715.849976
vn 5.316211 1.579498 0.476130
v 1275.770020 -29.089399 1757.800049
vn 5.643651 0.000887 1.968353
v 1275.089966 -29.153900 1788.459961
vn 4.669950 1.652342 2.006065
v 1275.069946 27.846001 1788.579956
vn 3.057928 3.070642 0.406312
v 1275.109985 28.849501 1786.880005
vn 4.723126 1.031394 0.885573
v 1220.430054 28.678699 1858.709961
vn 1.699391 3.766398 2.464025
v 1230.369995 28.716700 1842.349976
vn 2.266043 1.694664 0.820997
v 1230.369995 92.459396 1842.449951
vn 3.678943 -3.223436 2.216568
v 1230.339966 93.118202 1842.479980
vn -0.452251 -0.403165 -0.389362
v 1231.359985 93.735603 1845.479980
vn -1.288036 2.362639 3.008032
v 1230.339966 92.433502 1842.479980
vn 0.050376 0.113026 -0.006699
v 1221.150024 79.912102 1845.219971
vn 0.781176 -0.236853 -0.106629
v 1221.140015 87.829903 1845.239990
vn 1.929390 1.319583 1.199520
v 1220.729980 28.707001 1845.239990
vn 4.525764 1.095120 1.235437
v 1220.300049 28.172501 1859.709961
vn 2.406907 2.724362 4.856845
v 1220.569946 27.675699 1860.180054
vn 4.366431 2.051253 0.749667
v 1244.089966 10.855800 1829.239990
vn 3.135212 2.942207 2.369030
v 1237.670044 15.229100 1837.689941
vn 1.882145 2.042300 4.015739
v 1231.239990 10.815600 1846.119995
vn 1.362955 -0.005016 4.695250
v 1228.589966 0.200746 1849.599976
vn 1.882913 -2.056505 4.005375
v 1231.250000 -10.397500 1846.069946
vn 3.125591 -2.905556 2.372833
v 1237.680054 -14.770800 1837.630005
vn 4.367673 -2.052018 0.740963
v 1244.099976 -10.357400 1829.199951
vn 4.883501 0.004027 0.065378
v 1246.760010 0.257522 1825.729980
vn 3.116522 2.055274 -0.202854
v 1257.619995 10.839200 1839.530029
vn 1.873599 2.901731 1.433280
v 1251.189941 15.212500 1847.979980
vn 0.631229 2.048705 3.065563
v 1244.770020 10.799100 1856.410034
vn 0.118353 -0.007203 3.736723
v 1242.119995 0.184160 1859.890015
vn 3.631394 0.003261 -0.881934
v 1260.290039 0.240933 1836.020020
vn 0.632555 -2.059790 3.056298
v 1244.780029 -10.414100 1856.369995
vn 1.875675 -2.908781 1.421319
v 1251.199951 -14.787400 1847.920044
vn 3.117943 -2.051349 -0.210851
v 1257.630005 -10.373900 1839.489990
vn 2.679622 3.031358 1.514309
v 1240.229980 -29.262800 1834.250000
vn 4.942502 3.742882 0.532933
v 1240.219971 -29.263599 1834.589966
vn 2.822179 3.765099 0.990246
v 1275.099976 -69.653801 1788.369995
vn 2.521292 2.242372 1.289946
v 1275.790039 -69.589302 1757.719971
vn 2.175743 1.563624 0.406258
v 1275.989990 -29.089001 1757.650024
vn 2.241505 4.666996 0.364920
v 1276.000000 -69.588898 1757.560059
vn 2.744359 3.038055 -1.374030
v 1271.020020 -69.575699 1750.369995
vn 2.441986 4.635550 -2.652214
v 1272.119995 -69.471603 1700.949951
vn 4.949523 3.758719 -0.287753
v 1243.000000 -29.001301 1710.040039
vn 2.743747 3.037410 -1.374620
v 1242.989990 -29.002300 1710.500000
vn 4.985899 1.013329 -3.482339
v 1235.869995 -18.692699 1700.250000
vn 0.832072 1.377953 -5.800423
v 1267.199951 -79.452202 1690.819946
vn 4.452531 0.703824 -4.171574
v 1228.829956 -25.708200 1690.079956
vn 2.904524 -0.809372 -4.807230
v 1226.589966 -21.500601 1686.869995
vn 2.867239 -1.245363 -4.623725
v 1227.810059 -27.079100 1688.599976
vn 1.202130 -0.763247 -5.914878
v 1228.829956 -28.874201 1690.069946
vn 0.850572 -1.587755 -6.410184
v 1228.380005 -29.125099 1690.060059
vn 1.726463 -0.550607 -6.670026
v 1219.349976 -36.562199 1689.839966
vn 0.369631 -0.471447 -6.221771
v 1216.349976 -43.343498 1689.760010
vn -0.398697 -1.932563 -5.885684
v 1133.329956 -43.370300 1687.910034
vn -0.223820 0.198808 -6.228396
v 1159.119995 -79.487099 1688.410034
vn 0.898915 -2.032409 -5.089649
v 1406.839966 -145.906998 1693.790039
vn -1.442343 1.555538 -4.692219
v 1129.880005 -79.496498 1687.760010
vn -1.500710 -1.518386 -4.716984
v 1129.900024 -132.220993 1687.650024
vn 0.053946 -2.376257 -5.340675
v 1405.339966 -145.906998 1693.760010
vn 1.604878 -14.739058 -6.064063
v 1406.589966 -157.360001 1705.199951
vn 5.396259 -24.259090 -7.300596
v 1447.760010 -157.375000 1719.599976
vn 1.840620 -21.000443 -5.258103
v 1405.959961 -165.990997 1733.739990
vn -0.058431 -5.209762 -3.116030
v 1404.810059 -157.360992 1705.160034
vn 1.607643 -21.019812 5.244359
v 1404.079956 -166.167999 1817.719971
vn 6.574278 -35.931831 6.823922
v 1434.050049 -166.132004 1806.089966
vn 6.873273 -35.901417 -6.672911
v 1435.369995 -166.007004 1746.699951
vn 8.692311 -24.253614 -2.705861
v 1472.609985 -157.440994 1755.439941
vn 2.937151 -1.852603 -3.862044
v 1454.680054 -145.923996 1710.520020
vn 0.900702 2.052606 -5.082781
v 1406.819946 -79.407097 1693.930054
vn 0.451263 5.177797 -2.324441
v 1406.589966 -69.428200 1703.949951
vn 0.066363 3.671173 -3.026151
v 1406.489990 -69.437698 1708.449951
vn -1.459648 3.668942 -2.653756
v 1372.550049 -69.467598 1716.739990
vn -2.594696 3.668533 -1.567635
v 1347.290039 -69.527603 1740.890015
vn -3.036577 3.664398 -0.066389
v 1337.500000 -69.601501 1774.430054
vn -2.748780 3.716701 1.277107
v 1344.349976 -69.664299 1805.579956
vn -1.891558 3.892456 2.314373
v 1364.729980 -69.708199 1830.109985
vn -0.167667 10.660178 3.039345
v 1403.479980 -69.721802 1843.420044
vn 0.773564 18.385540 2.847513
v 1425.900024 -69.706596 1840.119995
vn 1.399587 15.034200 2.060408
v 1445.989990 -69.688698 1835.109985
vn 2.760953 1.854401 3.989053
v 1451.699951 -79.703796 1843.310059
vn 2.328624 5.177945 0.825916
v 1472.949951 -69.604500 1799.709961
vn 1.698455 18.535992 2.082995
v 1453.030029 -69.661400 1823.349976
vn 2.970590 3.783864 0.248074
v 1472.469971 -69.557999 1777.439941
vn 2.980284 2.505844 0.223411
v 1472.459961 -59.358002 1777.459961
vn 2.660002 2.620859 -1.452754
v 1464.180054 -59.289902 1743.520020
vn 2.655909 15.697252 -1.425903
v 1464.180054 -69.489799 1743.500000
vn 2.362334 5.337794 -0.699058
v 1473.939941 -69.510803 1755.219971
vn 4.576922 1.859642 1.605023
v 1482.390015 -79.607903 1802.989990
vn 2.762371 -1.869160 3.981705
v 1451.719971 -146.203995 1843.170044
vn 1.334123 -14.764931 6.067897
v 1403.439941 -157.656998 1846.300049
vn -0.197041 -5.222789 3.088551
v 1401.660034 -157.658005 1846.260010
vn -0.169455 -6.134754 0.882878
v 1402.079956 -166.169006 1817.680054
vn 5.067841 -24.288630 7.432793
v 1445.209961 -157.615005 1833.750000
vn 8.566943 -24.269758 2.989794
v 1471.630005 -157.533005 1799.050049
vn 9.497287 -35.941299 0.136693
v 1447.010010 -166.065994 1776.670044
vn 4.645042 -1.856399 -1.399026
v 1483.550049 -146.001007 1752.180054
vn 2.936330 1.870873 -3.854594
v 1454.650024 -79.424500 1710.660034
vn 1.493305 5.170356 -1.953350
v 1448.589966 -69.443497 1718.640015
vn 1.574376 3.672080 -2.585454
v 1440.030029 -69.445801 1718.239990
vn 0.066137 2.624040 -3.028262
v 1406.479980 -59.237701 1708.469971
vn -1.459516 2.621808 -2.655317
v 1372.540039 -59.267601 1716.760010
vn -2.594404 2.620828 -1.570183
v 1347.290039 -59.327599 1740.910034
vn -3.035074 2.618433 -0.062431
v 1337.500000 -59.401600 1774.449951
vn -2.584871 2.530167 1.564528
v 1345.780029 -59.469700 1808.390015
vn -1.355650 2.334263 2.650985
v 1369.939941 -59.513699 1833.650024
vn -0.127456 2.566221 3.020566
v 1403.479980 -59.521801 1843.439941
vn 1.642311 1.805669 2.265695
v 1437.420044 -59.491901 1835.150024
vn 2.400752 1.507876 1.075873
v 1462.670044 -59.431900 1811.000000
vn 1.574312 2.624370 -2.588151
v 1440.020020 -59.245800 1718.260010
vn 4.643552 1.866289 -1.391433
v 1483.520020 -79.501198 1752.319946
vn 4.577162 -1.863243 1.597082
v 1482.420044 -146.108002 1802.849976
vn 2.683752 3.032492 1.502932
v 1270.020020 -69.669800 1795.089966
vn -3.513193 -2.840604 -3.656351
v 1104.329956 -73.041901 1712.209961
vn -1.919421 -1.940565 -4.860070
v 1108.650024 -69.546997 1708.079956
vn -1.731232 3.040358 -2.495431
v 1119.660034 -69.520798 1697.560059
vn -2.645164 1.409335 -3.609385
v 1139.469971 -69.514397 1698.000000
vn -0.745179 0.296104 -0.815216
v 1139.229980 -69.537102 1708.760010
vn -2.670476 -1.560174 -2.682055
v 1083.319946 -48.530102 1689.750000
vn -1.819594 -3.709657 -4.420204
v 1131.520020 -58.381302 1697.839966
vn -2.720258 -0.247542 -3.135760
v 1083.609985 0.511430 1675.890015
vn -3.569974 -0.107715 -3.130046
v 1083.569946 0.507220 1677.890015
vn -3.605308 -1.515971 -2.722787
v 1083.310059 -45.018299 1689.979980
vn -3.914303 -1.159063 -2.718318
v 1082.489990 -82.903900 1727.369995
vn -3.628862 -2.636210 -1.613819
v 1082.579956 -78.396698 1723.219971
vn -6.843779 -3.039518 -0.159427
v 1081.569946 -90.684097 1768.680054
vn -1.678735 -1.568573 -1.612450
v 1082.500000 -96.597099 1727.339966
vn -2.240828 -1.200765 -2.623588
v 1103.989990 -82.897003 1727.849976
vn -2.084241 -3.891224 2.019360
v 1094.859985 -96.609497 1735.410034
vn -2.927057 -3.833841 -0.059203
v 1096.239990 -96.616402 1738.989990
vn -2.926399 -3.833601 -0.090397
v 1094.900024 -96.742699 1798.969971
vn -2.024910 -3.841674 -2.114141
v 1093.359985 -96.750603 1802.479980
vn -3.175458 -1.574273 1.496792
v 1080.650024 -96.771103 1810.000000
vn -5.417072 -1.173013 2.507609
v 1080.650024 -83.077904 1810.030029
vn -2.761799 -1.535570 2.556298
v 1079.790039 -48.862900 1847.790039
vn -3.697165 -2.654545 1.448406
v 1080.550049 -78.588203 1814.189941
vn -3.722554 -1.518346 2.528380
v 1079.800049 -45.350101 1847.569946
vn 3.606103 -1.521929 2.705797
v 1042.810059 -45.362000 1846.739990
vn 3.523487 -0.047727 3.122573
v 1042.520020 0.112211 1859.020020
vn 2.549650 -0.005559 3.091840
v 1042.010010 0.063802 1882.020020
vn 2.558188 1.512272 2.687971
v 1042.329956 57.095798 1866.869995
vn -2.934794 1.510865 2.566417
v 890.364014 57.046700 1863.479980
vn -2.652174 2.623927 1.464036
v 891.278015 98.861397 1821.849976
vn -4.390332 2.901071 -0.092002
v 892.567017 50.254601 1764.760010
vn -2.618493 3.033696 -0.051947
v 892.543030 114.253998 1764.900024
vn 2.582533 2.625318 1.580522
v 1043.239990 98.910500 1825.239990
vn 3.499513 1.493565 2.737745
v 1042.770020 45.637798 1846.930054
vn -3.514296 1.327407 2.748011
v 1079.729980 42.992001 1849.219971
vn -3.850070 1.077016 2.789994
v 1079.609985 29.348200 1855.089966
vn -3.501127 0.563289 2.996502
v 1079.530029 14.930900 1858.670044
vn -3.553286 -0.287535 3.011299
v 1079.510010 0.124154 1859.849976
vn -2.865996 -0.332044 3.020798
v 1079.469971 0.119944 1861.849976
vn -1.963391 -4.678467 5.416657
v 1128.310059 -58.684399 1841.810059
vn -2.187803 -2.441549 5.135807
v 1105.920044 -69.804703 1830.510010
vn -1.841868 3.025389 2.427540
v 1116.449951 -69.823898 1841.520020
vn -2.803193 1.393049 3.493653
v 1136.270020 -69.817497 1841.959961
vn -0.769987 -0.483131 1.557914
v 1136.510010 -69.794899 1831.189941
vn -0.283861 0.053294 9.751118
v 1171.780029 5.452840 1863.770020
vn -0.155979 -0.030299 6.355572
v 1197.069946 3.207190 1864.430054
vn 0.547110 -2.755006 4.000320
v 1172.209961 5.882570 1863.880005
vn -0.705178 1.320781 6.040303
v 1119.469971 26.577600 1858.949951
vn -1.919981 3.339753 4.640624
v 1123.290039 41.595798 1853.170044
vn -3.040709 0.865489 2.946416
v 1079.540039 25.618200 1858.339966
vn -3.041788 1.318706 2.777802
v 1079.650024 39.691200 1853.099976
vn -2.958553 1.800377 2.490708
v 1079.810059 52.737598 1845.670044
vn -2.951724 2.123442 2.229595
v 1080.020020 64.417297 1836.229980
vn -0.180065 3.245448 5.291946
v 1137.250000 74.426300 1826.329956
vn -3.050368 3.317762 2.392882
v 1080.260010 74.425797 1825.040039
vn -0.546799 5.210238 5.627375
v 1128.630005 75.139900 1825.180054
vn -0.475182 4.127579 2.922905
v 1137.420044 94.232498 1818.469971
vn -1.055269 15.030007 12.125890
v 1120.589966 77.057800 1822.310059
vn -1.244608 12.035369 9.089598
v 1113.420044 79.686600 1818.079956
vn -1.167300 4.830061 3.603395
v 1107.130005 82.622101 1812.770020
vn -1.767958 4.328144 3.503649
v 1101.760010 85.535301 1806.579956
vn -1.473951 3.246054 2.699425
v 1109.060059 94.243103 1808.430054
vn -0.319971 4.146037 -2.929671
v 1139.560059 94.435204 1722.209961
vn -2.250712 5.687140 -0.546394
v 1178.890015 94.447899 1723.089966
vn -1.723933 3.668705 -3.215291
v 1178.520020 94.233902 1723.000000
vn -1.232452 4.761002 -1.974110
v 1285.319946 155.559006 1688.770020
vn -1.319537 4.752606 1.937428
v 1281.540039 155.201996 1858.630005
vn -2.268222 5.688467 0.470515
v 1176.750000 94.245201 1819.339966
vn -1.848948 3.637169 3.170081
v 1176.369995 94.030998 1819.410034
vn -2.105620 3.479052 2.817150
v 1156.640015 74.432602 1826.760010
vn 0.346659 5.169046 2.363086
v 1403.010010 155.240997 1861.329956
vn 1.405092 4.977419 2.039655
v 1453.290039 155.291000 1846.229980
vn 2.329051 4.980003 0.825790
v 1485.089966 155.391006 1804.449951
vn 6.965283 1.913692 7.978122
v 1457.839966 147.279007 1852.790039
vn 3.874725 -2.870819 5.333328
v 1449.579956 121.764999 1857.849976
vn -0.066835 -2.623662 3.028188
v 1402.839966 121.723999 1869.260010
vn -1.138961 -2.080566 2.560358
v 1356.660034 121.735001 1855.780029
vn -2.057467 -4.170152 2.225780
v 1348.619995 127.244003 1850.310059
vn 0.737682 -6.036172 0.714023
v 1339.780029 127.211998 1864.010010
vn 2.095795 -4.631420 1.743101
v 1338.689941 126.038002 1862.839966
vn -2.862098 -4.473985 0.844764
v 1315.890015 127.331001 1803.089966
vn -2.821326 -4.469708 -0.990334
v 1317.170044 127.452003 1745.660034
vn 0.612254 -6.156608 0.406037
v 1324.530029 127.546997 1701.489990
vn -1.934817 -4.165839 -2.341035
v 1351.969971 127.559998 1699.949951
vn 1.688048 -0.294873 -10.287805
v 1406.979980 127.614998 1683.420044
vn 0.697928 -6.148747 -0.396370
v 1324.930054 127.584999 1683.589966
vn 1.766384 -2.460457 3.617257
v 1269.719971 104.007004 1700.219971
vn 1.950115 -0.757506 1.020731
v 1231.380005 92.172600 1699.339966
vn 5.387448 -1.447603 -1.410590
v 1231.390015 58.307701 1699.260010
vn 5.365603 -1.386436 -1.235960
v 1231.339966 58.200401 1699.189941
vn 1.476312 0.973741 -1.132545
v 1220.910034 29.014000 1698.900024
vn 4.727503 0.958153 -0.711430
v 1221.270020 29.047800 1682.829956
vn 0.690009 2.665777 -3.745923
v 1221.400024 28.051201 1681.239990
vn 1.172964 0.148076 0.170473
v 1221.030029 27.792801 1681.180054
vn 3.112296 -0.615640 -1.384106
v 1220.310059 24.218399 1681.040039
vn 3.282339 -0.758167 -2.607681
v 1220.000000 22.753201 1680.979980
vn -5.984126 -0.311615 -12.711932
v 1220.010010 3.085440 1680.939941
vn 2.978133 -0.294481 -4.882039
v 1222.790039 3.348720 1681.439941
vn 2.087800 1.914750 -3.869287
v 1234.530029 11.126600 1698.420044
vn 1.935493 2.908310 -1.336419
v 1254.550049 15.529400 1697.459961
vn 3.103349 2.050993 0.349961
v 1260.599976 11.120000 1706.170044
vn 0.766214 2.059457 -3.024761
v 1248.510010 11.152100 1688.729980
vn 1.574396 0.011442 -4.623422
v 1232.040039 0.526689 1694.780029
vn 0.285115 0.007343 -3.728615
v 1246.020020 0.552157 1685.099976
vn 3.590435 -0.001812 1.043392
v 1263.099976 0.506765 1709.750000
vn 4.882041 0.003583 0.151700
v 1249.130005 0.481300 1719.430054
vn 3.106629 -2.052377 0.340995
v 1260.599976 -10.093200 1706.119995
vn 0.768476 -2.047077 -3.033928
v 1248.520020 -10.061100 1688.689941
vn 1.937664 -2.901388 -1.347852
v 1254.560059 -14.470500 1697.400024
vn 4.397155 -2.051099 -0.554381
v 1246.630005 -10.118600 1715.800049
vn 3.228784 -2.893992 -2.243104
v 1240.589966 -14.496000 1707.079956
vn 2.060735 -2.042470 -3.928150
v 1234.540039 -10.086500 1698.369995
vn 3.626909 -0.646968 -2.964732
v 1219.459961 -15.303500 1684.280029
vn -0.380765 -3.226791 -4.646807
v 1225.550049 -28.828400 1688.849976
vn 0.019734 -4.378710 -2.706001
v 1225.719971 -29.124100 1689.089966
vn -0.777958 -2.264106 -8.716140
v 1224.439941 -29.126400 1689.969971
vn 1.527094 -1.330137 -3.126834
v 1219.339966 -26.127800 1689.869995
vn 3.625598 -1.280235 -2.623834
v 1219.410034 -23.495100 1686.619995
vn 2.544991 -1.061675 -5.503801
v 1219.510010 -3.030090 1681.989990
vn 2.435569 -0.544685 -5.834612
v 1219.130005 -1.045260 1681.540039
vn 2.216792 -0.427538 -5.667045
v 1216.579956 0.554358 1678.859985
vn -5.063462 0.081827 -12.611070
v 1219.140015 0.549689 1681.540039
vn 1.426001 0.167151 -5.270331
v 1216.569946 7.519970 1679.130005
vn 2.787802 0.610501 -18.032301
v 1216.219971 3.603310 1678.910034
vn 1.337557 -0.505654 -5.986617
v 1229.619995 58.386700 1679.319946
vn 4.847239 -3.640252 0.450737
v 1239.849976 72.211403 1681.579956
vn 4.678442 0.915717 -0.742644
v 1221.219971 28.738001 1682.199951
vn 2.960904 -5.423377 -0.111296
v 1276.709961 108.628998 1682.479980
vn 1.089100 -1.012629 -5.929612
v 1264.829956 102.441002 1680.199951
vn -1.303225 1.860636 -5.260083
v 1184.439941 87.928101 1678.380005
vn -1.666875 1.265925 -5.302508
v 1143.119995 46.568100 1677.369995
vn 0.507761 -2.664410 -4.191536
v 1179.890015 9.810510 1678.109985
vn 0.023893 -0.502244 -6.239652
v 1201.209961 3.598460 1678.569946
vn -2.861501 0.631053 -3.117268
v 1083.560059 18.650999 1677.719971
vn 0.034632 -0.282884 -6.264835
v 1178.489990 8.407410 1678.359985
vn 0.693364 -2.373039 -2.048180
v 1179.880005 9.809650 1678.520020
vn -0.438852 1.519908 -6.023023
v 1123.780029 27.299000 1680.790039
vn -1.887848 3.526918 -4.585297
v 1127.640015 42.597099 1687.040039
vn -3.805611 3.630252 -2.357687
v 1137.680054 52.608398 1685.260010
vn -3.111418 4.117645 -2.152164
v 1179.339966 94.311302 1686.280029
vn -0.508717 2.330174 -5.111213
v 1287.640015 147.576996 1680.800049
vn 0.846749 2.100887 -5.099544
v 1406.979980 147.615005 1683.459961
vn 0.451083 5.178449 -2.323863
v 1406.790039 155.598999 1691.479980
vn 2.363103 4.983026 -0.700635
v 1486.260010 155.501007 1751.959961
vn 6.839354 2.396971 3.289663
v 1492.640015 147.388000 1807.069946
vn 7.572405 -1.909675 5.802499
v 1484.359985 121.848000 1824.589966
vn 3.040952 -2.494627 0.062546
v 1497.839966 121.949997 1778.410034
vn 6.979008 2.409822 -2.971197
v 1493.920044 147.509003 1749.650024
vn 6.559215 -1.750896 -4.257120
v 1486.430054 122.043999 1731.670044
vn -2.900628 -4.275294 -0.073644
v 1454.900024 121.935997 1777.449951
vn -2.005972 -3.922826 -2.104689
v 1439.479980 121.857002 1812.469971
vn 0.066358 -3.920563 -2.910307
v 1403.800049 121.815002 1826.319946
vn -2.003668 -2.351579 -2.103583
v 1439.469971 126.857002 1812.489990
vn 0.065270 -2.350989 -2.907094
v 1403.800049 126.815002 1826.329956
vn 2.099645 -6.431684 -2.019010
v 1368.770020 121.834000 1810.900024
vn 2.904714 -4.269491 0.055643
v 1354.930054 121.903999 1775.219971
vn 2.098289 -2.351467 -2.010960
v 1368.770020 126.834000 1810.910034
vn 2.901603 -2.350869 0.059695
v 1354.920044 126.903999 1775.229980
vn 2.007432 -3.931300 2.089200
v 1370.349976 121.983002 1740.199951
vn -0.887175 -1.581287 -2.547619
v 1360.250000 122.073997 1694.819946
vn -0.062868 -3.932438 2.893808
v 1406.030029 122.025002 1726.349976
vn 2.006645 -2.360271 2.092992
v 1370.349976 126.983002 1740.209961
vn -0.063969 -2.362352 2.896941
v 1406.030029 127.025002 1726.359985
vn -2.095222 -6.438910 1.992831
v 1441.050049 122.005997 1741.770020
vn 1.313527 -2.552170 -7.541956
v 1406.979980 122.114998 1683.410034
vn -3.725421 0.284815 -2.738559
v 1325.469971 121.991997 1728.079956
vn -2.407491 -1.135490 -0.056057
v 1311.989990 121.889999 1774.260010
vn -3.844284 0.272890 2.571178
v 1323.400024 121.795998 1821.000000
vn 1.578975 -2.851191 -2.983812
v 1453.170044 122.103996 1696.890015
vn 0.623665 -1.434666 -5.872815
v 1315.310059 127.585999 1681.380005
vn 4.414661 2.258178 -4.876940
v 1461.199951 147.595993 1702.430054
vn 1.493304 4.986293 -1.954089
v 1456.349976 155.580994 1708.810059
vn -2.096385 -2.359851 2.000812
v 1441.050049 127.005997 1741.780029
vn -2.900860 -2.356414 -0.069471
v 1454.900024 126.935997 1777.459961
vn -1.967288 3.491305 -2.891525
v 1159.140015 74.668503 1714.689941
vn 0.000258 3.613408 -4.941408
v 1139.750000 74.662300 1714.260010
vn -0.336240 3.802284 -4.787197
v 1131.050049 75.379799 1715.040039
vn -2.855292 2.186452 -2.289299
v 1082.979980 66.214798 1703.260010
vn -2.647452 1.667299 -2.676083
v 1083.239990 52.146301 1691.670044
vn -2.756611 1.258325 -2.910176
v 1083.439941 36.085999 1683.050049
vn -3.393300 1.013771 -3.025034
v 1083.430054 31.814899 1683.520020
vn -3.794950 0.422423 -3.099331
v 1083.530029 16.408701 1679.329956
vn 3.651894 1.555963 -2.534332
v 1046.290039 45.969501 1689.349976
vn -3.403580 1.698448 -2.686131
v 1083.270020 46.251400 1690.339966
vn 3.659408 2.661267 -1.383411
v 1045.530029 79.207603 1722.719971
vn -3.818455 1.864268 -2.505209
v 1083.079956 58.419102 1698.849976
vn -3.433339 2.297312 -2.167044
v 1082.849976 69.038803 1709.239990
vn -3.434690 2.718960 -1.557408
v 1082.579956 77.827301 1721.199951
vn 3.600514 3.039535 0.113282
v 1044.510010 91.303497 1768.239990
vn -3.946707 2.755198 -1.325172
v 1082.280029 84.550697 1734.449951
vn -3.507555 3.032806 -0.758819
v 1081.900024 89.626801 1751.420044
vn -3.474011 3.106103 0.054392
v 1081.500000 91.315498 1769.060059
vn 3.509193 2.639230 1.609007
v 1043.500000 79.016098 1813.699951
vn -3.934384 3.014190 0.225870
v 1081.239990 90.501602 1781.020020
vn -3.598681 3.008582 0.680797
v 1080.979980 88.124298 1792.750000
vn -3.377748 2.856293 1.189428
v 1080.670044 83.068298 1806.709961
vn -3.491686 2.502897 1.774367
v 1080.380005 75.807503 1819.670044
vn -3.743775 2.306943 1.960190
v 1080.130005 66.535301 1831.270020
vn -3.440373 1.934355 2.377939
v 1079.910034 55.498798 1841.209961
vn -3.060149 0.437742 3.035983
v 1079.479980 12.991000 1860.979980
vn -3.036172 2.765907 1.393595
v 1080.540039 82.502098 1812.380005
vn -3.001819 2.968577 0.928676
v 1080.849976 88.435600 1798.589966
vn -2.991348 3.083689 0.450899
v 1081.170044 92.071701 1784.030029
vn -2.964525 3.128986 -0.089393
v 1081.500000 93.315498 1769.069946
vn -2.654573 4.588204 1.661706
v 1091.380005 92.153603 1783.770020
vn -2.051378 4.995275 2.505217
v 1097.270020 88.231796 1799.569946
vn -2.794758 3.887935 1.116476
v 1092.199951 94.289101 1783.540039
vn -2.989502 4.489322 0.078211
v 1089.650024 93.318100 1769.260010
vn -2.927243 5.230464 -0.996564
v 1081.910034 91.566704 1750.930054
vn -3.221071 7.858011 -1.213974
v 1090.400024 93.047997 1761.979980
vn -2.948693 4.195295 -0.260509
v 1090.069946 94.319099 1768.839966
vn -2.969834 4.131635 0.167181
v 1090.050049 94.318199 1769.270020
vn -2.995461 3.810770 -0.666750
v 1090.989990 94.334503 1761.680054
vn -2.732282 4.120376 -1.153402
v 1092.839966 94.348999 1755.089966
vn -2.846824 11.256046 -2.581748
v 1092.020020 92.214500 1754.810059
vn -2.911004 4.176387 -0.550769
v 1090.900024 94.333603 1762.089966
vn -2.936178 2.894669 -1.239992
v 1082.300049 86.311203 1733.469971
vn -1.978122 4.888490 -2.701867
v 1098.630005 88.345001 1739.229980
vn -1.579291 3.894671 -2.526264
v 1110.790039 94.406197 1730.969971
vn -1.333808 4.209876 -4.059515
v 1109.060059 82.798798 1726.500000
vn -0.905026 4.453854 -4.089376
v 1115.579956 79.889503 1721.459961
vn -0.660424 4.112561 -4.454941
v 1122.910034 77.283302 1717.560059
vn -2.930192 2.596308 -1.796172
v 1082.660034 77.750999 1717.380005
vn 2.616257 3.034266 0.064593
v 1044.510010 114.303001 1768.280029
vn -2.584557 2.630354 -1.569618
v 893.818970 99.101303 1707.880005
vn -2.559078 1.521818 -2.682483
v 894.765015 57.462399 1666.069946
vn 2.650307 2.632077 -1.452891
v 1045.780029 99.150398 1711.270020
vn 2.675255 1.523697 -2.565558
v 1046.729980 57.511398 1669.459961
vn -2.550092 0.005635 -3.092268
v 895.125977 0.494628 1650.689941
vn -3.861886 0.004945 -2.989195
v 893.700012 0.359923 1714.670044
vn -6.299518 -2.049847 -2.197663
v 893.385986 -35.026100 1729.229980
vn -2.309498 -2.048801 -2.108740
v 888.388000 -35.027699 1729.119995
vn -2.354621 -2.903272 -0.058417
v 887.604980 -49.746799 1764.439941
vn -2.399898 -2.057042 1.995031
v 886.810974 -35.176601 1799.819946
vn -2.292050 0.005397 -2.954674
v 888.700989 0.358309 1714.560059
vn -3.881771 2.055096 -2.135150
v 893.359985 35.684299 1729.380005
vn -2.311067 2.055908 -2.100071
v 888.361023 35.682701 1729.270020
vn -2.425336 -0.007253 2.850351
v 886.471985 0.147832 1814.530029
vn -3.970605 -2.058055 1.960054
v 891.809998 -35.174999 1799.930054
vn -4.388204 -2.903897 -0.104109
v 892.604004 -49.745201 1764.550049
vn -2.816364 -1.512517 -2.694671
v 894.807007 -56.537399 1665.829956
vn 2.684877 0.007315 -2.975696
v 1047.089966 0.543688 1654.069946
vn 3.731407 0.007547 -2.952696
v 1046.579956 0.495278 1677.069946
vn 2.676499 -1.510979 -2.571881
v 1046.770020 -56.488300 1669.219971
vn -2.582520 -2.625633 -1.580695
v 893.892029 -98.351997 1707.459961
vn -2.616263 -3.035374 -0.064696
v 892.627014 -113.745003 1764.420044
vn -2.675403 -1.523666 2.565823
v 890.406006 -56.952999 1863.239990
vn -3.995586 -0.007772 2.812852
v 891.471008 0.149446 1814.650024
vn -2.401535 2.047152 2.003529
v 886.784973 35.533901 1799.969971
vn -2.356744 2.901806 -0.046243
v 887.567993 50.252998 1764.650024
vn -6.391068 2.046430 1.914588
v 891.783997 35.535500 1800.079956
vn -2.684993 -0.007259 2.975395
v 890.044006 0.014741 1878.630005
vn 2.559248 -1.522160 2.682319
v 1042.369995 -56.903900 1866.630005
vn 2.584625 -2.630642 1.569801
v 1043.310059 -98.542900 1824.819946
vn -2.650075 -2.631927 1.453092
v 891.351013 -98.592003 1821.439941
vn 2.618478 -3.033357 0.052058
v 1044.589966 -113.695999 1767.810059
vn 2.652141 -2.624365 -1.464201
v 1045.849976 -98.303001 1710.849976
vn 3.723135 -1.510707 -2.548428
v 1046.319946 -45.030300 1689.160034
vn 3.699148 -2.624164 -1.440961
v 1045.589966 -78.408600 1722.390015
vn 3.665388 -3.033245 0.075170
v 1044.579956 -90.695999 1767.849976
vn 3.631609 -2.630084 1.593014
v 1043.560059 -78.600098 1813.369995
vn 2.928531 -3.835271 0.075171
v 1086.239990 -96.619698 1738.760010
vn 2.026934 -3.847758 2.099748
v 1087.780029 -96.611702 1735.260010
vn -0.092294 -3.880289 2.909054
v 1091.349976 -96.607498 1733.880005
vn -0.117285 -2.595177 3.027697
v 1091.349976 -86.607498 1733.900024
vn -1.404258 -2.596469 2.691562
v 1093.640015 -86.608002 1734.520020
vn -2.237297 -2.503305 0.883705
v 1095.400024 -86.610703 1736.130005
vn -3.005022 -2.479295 -0.507989
v 1096.229980 -87.512703 1738.630005
vn -2.804873 -2.497015 -2.138901
v 1095.670044 -88.374603 1741.209961
vn -2.023643 -3.810596 -2.128496
v 1094.699951 -96.624397 1742.489990
vn -2.080809 -3.864094 2.035515
v 1093.520020 -96.735703 1795.400024
vn -2.899922 -2.514186 2.005411
v 1094.430054 -88.492302 1796.760010
vn -3.027074 -2.481135 0.380538
v 1094.880005 -87.659401 1799.310059
vn -2.199897 -2.499743 -0.988872
v 1093.930054 -86.749100 1801.829956
vn -1.341831 -2.665070 -2.749568
v 1092.109985 -86.752899 1803.359985
vn 2.241066 -2.501496 -0.893742
v 1085.739990 -86.751701 1801.650024
vn 3.005099 -2.466334 0.500882
v 1084.900024 -87.648300 1799.140015
vn 2.928267 -3.836189 0.038315
v 1084.900024 -96.745903 1798.750000
vn 2.802690 -2.516261 2.146950
v 1085.500000 -88.511497 1796.510010
vn 2.023391 -3.826697 2.111718
v 1086.439941 -96.737999 1795.239990
vn 2.089654 -3.873941 -2.038811
v 1086.290039 -96.752899 1802.319946
vn 1.407213 -2.576647 -2.699152
v 1087.489990 -86.754402 1803.260010
vn 0.118719 -2.582142 -3.038951
v 1089.790039 -86.754898 1803.880005
vn 0.100584 -3.872086 -2.922349
v 1089.790039 -96.754898 1803.859985
vn 2.082314 -3.857687 -2.050009
v 1087.619995 -96.626602 1742.339966
vn -0.098613 -3.883501 2.907872
v 1090.010010 -96.733803 1793.859985
vn 1.634596 -2.504148 3.437947
v 1087.339966 -89.095802 1794.589966
vn -0.139350 -2.406536 3.839874
v 1090.010010 -89.310600 1793.880005
vn -1.745706 -2.432156 3.367894
v 1092.650024 -89.093300 1794.709961
vn 0.102107 -3.860202 -2.927532
v 1091.130005 -96.628601 1743.869995
vn 0.165283 -2.402667 -3.860806
v 1091.130005 -89.205299 1743.890015
vn 1.738425 -2.421725 -3.383698
v 1088.479980 -88.986198 1743.060059
vn 2.892799 -2.509042 -2.046403
v 1086.760010 -88.411201 1741.109985
vn 3.032961 -2.472198 -0.407072
v 1086.260010 -87.537003 1738.459961
vn 2.197727 -2.496809 0.976417
v 1087.199951 -86.613403 1735.949951
vn 1.340619 -2.678203 2.741236
v 1089.030029 -86.609497 1734.420044
vn -1.602299 -2.477474 -3.455212
v 1093.699951 -89.003799 1743.250000
vn -4.854290 -0.362588 -11.920659
v 1219.930054 22.058100 1681.030029
vn 4.903417 0.042892 -3.899765
v 1218.319946 7.457480 1680.959961
vn -3.779597 -0.282422 -9.093652
v 1218.670044 12.539400 1681.890015
vn 0.695267 -1.873027 11.202436
v 1172.209961 5.882840 1863.750000
vn 3.351684 -1.721269 1.603268
v 1215.520020 0.172406 1860.810059
vn -0.300214 1.757915 -1.211342
v 1210.140015 59.685299 1844.930054
vn -1.812688 0.122238 -0.629798
v 1210.969971 61.525101 1844.949951
vn -0.564725 1.972371 1.126420
v 1210.150024 59.686600 1844.319946
vn -0.382545 -0.486083 -0.139655
v 1210.969971 81.947197 1845.000000
vn 1.924345 -0.246192 -1.265761
v 1196.319946 73.487999 1844.650024
vn 0.602660 -0.100593 0.917257
v 1196.560059 73.510399 1834.010010
vn -0.189472 0.335376 0.061490
v 1214.229980 59.156502 1698.880005
vn -0.388311 -0.486801 0.120366
v 1214.219971 82.254700 1698.930054
vn 1.867251 -0.251851 1.350679
v 1199.579956 73.795502 1698.589966
vn 0.642509 -0.096589 -0.889086
v 1199.339966 73.773102 1709.229980
vn 1.525318 -1.644364 -1.541277
v 1394.439941 -181.490997 1733.459961
vn -1.768474 -4.624471 -1.620436
v 1378.869995 -180.796997 1758.189941
vn -1.611713 -1.488033 -1.610354
v 1379.430054 -180.744995 1733.130005
vn -1.838099 -4.630533 1.520766
v 1378.560059 -180.826004 1771.979980
vn -3.265270 -3.177086 -0.386740
v 1377.969971 -180.882004 1798.290039
vn -1.370178 4.781962 1.549921
v 1379.359985 -164.893997 1772.030029
vn -2.829589 3.678308 -0.655074
v 1378.770020 -164.949997 1798.339966
vn -2.977720 -3.437215 -1.274686
v 1377.650024 -180.871002 1799.729980
vn 1.908890 -2.581893 2.189442
v 1387.199951 -181.382996 1811.800049
vn 2.954440 -3.097854 0.364141
v 1392.989990 -181.628006 1798.630005
vn 1.680887 1.493002 -1.530045
v 1395.239990 -165.559006 1733.510010
vn -1.455800 1.650200 -1.600149
v 1380.219971 -164.811996 1733.180054
vn -1.301519 4.786801 -1.590334
v 1379.660034 -164.865005 1758.239990
vn 1.368413 -4.782128 -1.550742
v 1371.359985 -180.423996 1758.030029
vn 1.299295 -4.789262 1.589040
v 1371.050049 -180.453003 1771.810059
vn -3.184410 -2.609953 0.479074
v 1355.439941 -179.761993 1797.790039
vn 1.525443 -1.643256 -1.540582
v 1371.920044 -180.371002 1732.959961
vn -1.611658 -1.487003 -1.609539
v 1356.890015 -179.625000 1732.630005
vn -1.455865 1.651104 -1.600749
v 1357.689941 -163.692993 1732.680054
vn -2.894751 2.893695 0.543061
v 1356.229980 -163.830002 1797.839966
vn -2.041908 2.580624 1.986442
v 1361.439941 -164.130997 1811.260010
vn -2.661401 -2.402028 1.608153
v 1359.209961 -179.985992 1809.510010
vn 2.911067 -3.594195 -0.390678
v 1370.469971 -180.507996 1798.130005
vn 1.765898 4.625273 1.620595
v 1371.849976 -164.520996 1771.859985
vn 1.835745 4.632856 -1.520458
v 1372.150024 -164.492004 1758.079956
vn 3.150999 2.650254 0.655234
v 1393.780029 -165.695999 1798.680054
vn 2.135015 2.275405 2.098974
v 1387.989990 -165.451004 1811.849976
vn 0.397961 -2.193573 2.905036
v 1376.540039 -180.869995 1816.869995
vn -0.205962 -2.604737 3.045285
v 1373.800049 -180.735001 1817.010010
vn -0.732933 -3.617821 -3.023650
v 1374.400024 -180.716003 1801.969971
vn 0.191879 -3.512992 -3.089015
v 1374.130005 -180.703003 1801.969971
vn -1.506833 -2.580514 2.726236
v 1365.640015 -180.322998 1814.939941
vn 1.341877 -3.698328 -2.647851
v 1372.329956 -180.612000 1801.459961
vn 2.443428 -3.825996 -1.501065
v 1370.989990 -180.541000 1800.140015
vn 0.131792 2.438921 2.938747
v 1374.589966 -164.802002 1817.060059
vn 0.244548 3.904378 -2.895973
v 1374.930054 -164.770996 1802.020020
vn -1.808082 4.028557 -2.084574
v 1377.609985 -164.901001 1800.979980
vn -2.115279 -3.641725 -2.321349
v 1376.819946 -180.832993 1800.930054
vn 2.303290 3.796764 -1.986766
v 1372.300049 -164.636002 1800.859985
vn 3.205835 3.381644 -0.522857
v 1371.260010 -164.576004 1798.180054
vn 1.680861 1.493937 -1.530515
v 1372.709961 -164.438995 1733.010010
vn 2.575289 -2.540313 1.349579
v 1391.410034 -181.572998 1805.790039
# 634 vertices, 0 vertices normals

f 1//1 2//2 3//3
f 4//4 2//2 1//1
f 4//4 5//5 2//2
f 4//4 6//6 5//5
f 4//4 7//7 6//6
f 7//7 4//4 8//8
f 4//4 9//9 8//8
f 4//4 10//10 9//9
f 1//1 10//10 4//4
f 1//1 11//11 10//10
f 1//1 12//12 11//11
f 1//1 13//13 12//12
f 1//1 14//14 13//13
f 3//3 14//14 1//1
f 3//3 2//2 14//14
f 2//2 15//15 14//14
f 15//15 2//2 16//16
f 2//2 5//5 16//16
f 16//16 5//5 17//17
f 5//5 6//6 17//17
f 6//6 8//8 17//17
f 7//7 8//8 6//6
f 9//9 17//17 8//8
f 9//9 16//16 17//17
f 9//9 15//15 16//16
f 9//9 13//13 15//15
f 13//13 9//9 18//18
f 10//10 18//18 9//9
f 18//18 10//10 11//11
f 19//19 18//18 11//11
f 20//20 18//18 19//19
f 13//13 18//18 20//20
f 13//13 20//20 21//21
f 22//22 21//21 20//20
f 22//22 23//23 21//21
f 22//22 23//23 21//21
f 22//22 23//23 21//21
f 24//24 23//23 22//22
f 24//24 25//25 23//23
f 26//26 25//25 24//24
f 26//26 27//27 25//25
f 28//28 27//27 26//26
f 28//28 29//29 27//27
f 28//28 30//30 29//29
f 31//31 30//30 28//28
f 31//31 21//21 30//30
f 12//12 21//21 31//31
f 12//12 13//13 21//21
f 28//28 12//12 31//31
f 28//28 24//24 12//12
f 28//28 26//26 24//24
f 12//12 24//24 32//32
f 32//32 24//24 22//22
f 22//22 20//20 32//32
f 22//22 21//21 20//20
f 22//22 21//21 20//20
f 32//32 20//20 33//33
f 20//20 19//19 33//33
f 12//12 33//33 19//19
f 12//12 32//32 33//33
f 12//12 19//19 11//11
f 29//29 30//30 21//21
f 29//29 21//21 23//23
f 29//29 23//23 25//25
f 29//29 25//25 34//34
f 27//27 34//34 25//25
f 27//27 29//29 34//34
f 13//13 14//14 15//15
f 13//13 14//14 15//15
f 13//13 14//14 15//15
f 35//35 36//36 37//37
f 35//35 38//38 36//36
f 38//38 35//35 39//39
f 35//35 40//40 39//39
f 37//37 40//40 35//35
f 41//41 40//40 37//37
f 40//40 41//41 42//42
f 41//41 43//43 42//42
f 43//43 41//41 44//44
f 44//44 41//41 37//37
f 37//37 36//36 44//44
f 36//36 45//45 44//44
f 45//45 36//36 42//42
f 42//42 36//36 46//46
f 36//36 47//47 46//46
f 36//36 48//48 47//47
f 38//38 48//48 36//36
f 38//38 39//39 48//48
f 48//48 39//39 49//49
f 39//39 42//42 49//49
f 40//40 42//42 39//39
f 42//42 46//46 49//49
f 47//47 49//49 46//46
f 48//48 49//49 47//47
f 50//50 45//45 42//42
f 51//51 45//45 50//50
f 45//45 51//51 52//52
f 52//52 51//51 53//53
f 53//53 51//51 54//54
f 51//51 55//55 54//54
f 55//55 51//51 56//56
f 56//56 51//51 50//50
f 50//50 57//57 56//56
f 58//58 57//57 50//50
f 57//57 58//58 52//52
f 52//52 58//58 59//59
f 58//58 43//43 59//59
f 43//43 58//58 50//50
f 42//42 43//43 50//50
f 59//59 43//43 44//44
f 44//44 45//45 59//59
f 59//59 45//45 52//52
f 52//52 60//60 57//57
f 53//53 60//60 52//52
f 53//53 61//61 60//60
f 54//54 61//61 53//53
f 54//54 55//55 61//61
f 55//55 62//62 61//61
f 62//62 55//55 56//56
f 56//56 61//61 62//62
f 60//60 61//61 56//56
f 57//57 60//60 56//56
f 63//63 64//64 65//65
f 66//66 64//64 63//63
f 66//66 67//67 64//64
f 66//66 68//68 67//67
f 66//66 69//69 68//68
f 69//69 66//66 70//70
f 66//66 71//71 70//70
f 66//66 72//72 71//71
f 63//63 72//72 66//66
f 63//63 73//73 72//72
f 63//63 74//74 73//73
f 63//63 75//75 74//74
f 63//63 76//76 75//75
f 65//65 76//76 63//63
f 65//65 64//64 76//76
f 64//64 77//77 76//76
f 77//77 64//64 78//78
f 64//64 67//67 78//78
f 78//78 67//67 79//79
f 67//67 68//68 79//79
f 68//68 70//70 79//79
f 69//69 70//70 68//68
f 71//71 79//79 70//70
f 71//71 78//78 79//79
f 71//71 77//77 78//78
f 71//71 75//75 77//77
f 75//75 71//71 80//80
f 72//72 80//80 71//71
f 80//80 72//72 73//73
f 81//81 80//80 73//73
f 82//82 80//80 81//81
f 75//75 80//80 82//82
f 75//75 82//82 83//83
f 84//84 83//83 82//82
f 84//84 85//85 83//83
f 84//84 85//85 83//83
f 84//84 85//85 83//83
f 86//86 85//85 84//84
f 86//86 87//87 85//85
f 88//88 87//87 86//86
f 88//88 89//89 87//87
f 90//90 89//89 88//88
f 90//90 91//91 89//89
f 90//90 92//92 91//91
f 93//93 92//92 90//90
f 93//93 83//83 92//92
f 74//74 83//83 93//93
f 74//74 75//75 83//83
f 90//90 74//74 93//93
f 90//90 86//86 74//74
f 90//90 88//88 86//86
f 74//74 86//86 94//94
f 94//94 86//86 84//84
f 84//84 82//82 94//94
f 84//84 83//83 82//82
f 84//84 83//83 82//82
f 94//94 82//82 95//95
f 82//82 81//81 95//95
f 74//74 95//95 81//81
f 74//74 94//94 95//95
f 74//74 81//81 73//73
f 91//91 92//92 83//83
f 91//91 83//83 85//85
f 91//91 85//85 87//87
f 91//91 87//87 96//96
f 89//89 96//96 87//87
f 89//89 91//91 96//96
f 75//75 76//76 77//77
f 75//75 76//76 77//77
f 75//75 76//76 77//77
f 97//97 98//98 99//99
f 97//97 100//100 98//98
f 97//97 100//100 98//98
f 101//101 100//100 97//97
f 102//102 100//100 101//101
f 103//103 100//100 102//102
f 103//103 98//98 100//100
f 98//98 103//103 99//99
f 103//103 104//104 99//99
f 104//104 103//103 105//105
f 103//103 106//106 105//105
f 107//107 106//106 103//103
f 107//107 108//108 106//106
f 107//107 109//109 108//108
f 107//107 110//110 109//109
f 107//107 111//111 110//110
f 112//112 111//111 107//107
f 112//112 113//113 111//111
f 114//114 113//113 112//112
f 114//114 115//115 113//113
f 115//115 114//114 116//116
f 116//116 114//114 117//117
f 117//117 114//114 118//118
f 118//118 114//114 112//112
f 112//112 119//119 118//118
f 112//112 120//120 119//119
f 112//112 121//121 120//120
f 112//112 122//122 121//121
f 122//122 112//112 123//123
f 123//123 112//112 107//107
f 107//107 124//124 123//123
f 107//107 103//103 124//124
f 103//103 125//125 124//124
f 103//103 126//126 125//125
f 103//103 127//127 126//126
f 103//103 102//102 127//127
f 127//127 102//102 128//128
f 128//128 102//102 129//129
f 129//129 102//102 101//101
f 101//101 130//130 129//129
f 131//131 130//130 101//101
f 131//131 132//132 130//130
f 133//133 132//132 131//131
f 134//134 132//132 133//133
f 134//134 135//135 132//132
f 136//136 135//135 134//134
f 136//136 130//130 135//135
f 136//136 130//130 129//129
f 136//136 129//129 127//127
f 129//129 127//127 128//128
f 129//129 127//127 128//128
f 127//127 136//136 137//137
f 137//137 136//136 134//134
f 138//138 137//137 134//134
f 137//137 138//138 139//139
f 139//139 140//140 138//138
f 139//139 140//140 138//138
f 140//140 141//141 139//139
f 142//142 141//141 140//140
f 141//141 142//142 143//143
f 143//143 142//142 144//144
f 142//142 145//145 144//144
f 146//146 145//145 142//142
f 146//146 147//147 145//145
f 146//146 148//148 147//147
f 148//148 146//146 149//149
f 146//146 150//150 149//149
f 151//151 150//150 146//146
f 150//150 151//151 152//152
f 150//150 151//151 152//152
f 152//152 151//151 140//140
f 151//151 142//142 140//140
f 146//146 142//142 151//151
f 133//133 152//152 140//140
f 153//153 152//152 133//133
f 154//154 152//152 153//153
f 154//154 155//155 152//152
f 156//156 155//155 154//154
f 157//157 155//155 156//156
f 157//157 158//158 155//155
f 157//157 159//159 158//158
f 157//157 160//160 159//159
f 161//161 160//160 157//157
f 161//161 162//162 160//160
f 161//161 163//163 162//162
f 164//164 163//163 161//161
f 165//165 163//163 164//164
f 163//163 165//165 166//166
f 165//165 167//167 166//166
f 168//168 167//167 165//165
f 168//168 169//169 167//167
f 168//168 170//170 169//169
f 168//168 171//171 170//170
f 168//168 172//172 171//171
f 168//168 173//173 172//172
f 168//168 174//174 173//173
f 168//168 175//175 174//174
f 168//168 164//164 175//175
f 168//168 165//165 164//164
f 175//175 164//164 176//176
f 164//164 177//177 176//176
f 161//161 177//177 164//164
f 161//161 154//154 177//177
f 161//161 156//156 154//154
f 161//161 178//178 156//156
f 161//161 179//179 178//178
f 161//161 157//157 179//179
f 157//157 180//180 179//179
f 157//157 178//178 180//180
f 157//157 156//156 178//178
f 178//178 181//181 180//180
f 179//179 181//181 178//178
f 181//181 179//179 182//182
f 182//182 179//179 183//183
f 179//179 180//180 183//183
f 180//180 182//182 183//183
f 180//180 181//181 182//182
f 177//177 154//154 184//184
f 154//154 176//176 184//184
f 154//154 185//185 176//176
f 154//154 153//153 185//185
f 186//186 185//185 153//153
f 186//186 185//185 153//153
f 185//185 186//186 176//176
f 186//186 174//174 176//176
f 174//174 186//186 187//187
f 187//187 186//186 188//188
f 186//186 189//189 188//188
f 131//131 189//189 186//186
f 131//131 190//190 189//189
f 131//131 191//191 190//190
f 131//131 192//192 191//191
f 131//131 99//99 192//192
f 131//131 97//97 99//99
f 97//97 131//131 101//101
f 97//97 98//98 99//99
f 173//173 192//192 99//99
f 173//173 193//193 192//192
f 173//173 194//194 193//193
f 173//173 187//187 194//194
f 173//173 174//174 187//187
f 187//187 195//195 194//194
f 196//196 195//195 187//187
f 195//195 196//196 197//197
f 197//197 196//196 188//188
f 188//188 196//196 187//187
f 189//189 197//197 188//188
f 198//198 197//197 189//189
f 197//197 198//198 195//195
f 195//195 198//198 199//199
f 198//198 200//200 199//199
f 200//200 198//198 190//190
f 190//190 198//198 189//189
f 191//191 200//200 190//190
f 201//201 200//200 191//191
f 200//200 201//201 202//202
f 202//202 201//201 192//192
f 192//192 201//201 191//191
f 193//193 202//202 192//192
f 199//199 202//202 193//193
f 199//199 200//200 202//202
f 194//194 199//199 193//193
f 195//195 199//199 194//194
f 173//173 99//99 203//203
f 204//204 203//203 99//99
f 173//173 203//203 204//204
f 205//205 173//173 204//204
f 205//205 172//172 173//173
f 206//206 172//172 205//205
f 206//206 207//207 172//172
f 208//208 207//207 206//206
f 208//208 209//209 207//207
f 210//210 209//209 208//208
f 211//211 209//209 210//210
f 209//209 211//211 207//207
f 211//211 212//212 207//207
f 211//211 213//213 212//212
f 211//211 210//210 213//213
f 214//214 213//213 210//210
f 215//215 213//213 214//214
f 215//215 216//216 213//213
f 215//215 217//217 216//216
f 215//215 218//218 217//217
f 214//214 218//218 215//215
f 214//214 219//219 218//218
f 214//214 220//220 219//219
f 214//214 221//221 220//220
f 214//214 222//222 221//221
f 214//214 223//223 222//222
f 224//224 223//223 214//214
f 224//224 225//225 223//223
f 224//224 226//226 225//225
f 224//224 227//227 226//226
f 227//227 224//224 228//228
f 229//229 228//228 224//224
f 230//230 228//228 229//229
f 230//230 228//228 229//229
f 230//230 228//228 229//229
f 230//230 228//228 229//229
f 230//230 228//228 229//229
f 230//230 228//228 229//229
f 230//230 228//228 229//229
f 230//230 228//228 229//229
f 230//230 228//228 229//229
f 231//231 228//228 230//230
f 231//231 227//227 228//228
f 231//231 116//116 227//227
f 231//231 115//115 116//116
f 115//115 231//231 230//230
f 115//115 230//230 232//232
f 232//232 230//230 233//233
f 230//230 234//234 233//233
f 230//230 229//229 234//234
f 230//230 229//229 234//234
f 230//230 229//229 234//234
f 230//230 229//229 234//234
f 230//230 229//229 234//234
f 230//230 229//229 234//234
f 230//230 229//229 234//234
f 230//230 229//229 234//234
f 230//230 229//229 234//234
f 234//234 229//229 235//235
f 234//234 229//229 235//235
f 234//234 229//229 235//235
f 234//234 229//229 235//235
f 234//234 229//229 235//235
f 234//234 229//229 235//235
f 234//234 229//229 235//235
f 234//234 229//229 235//235
f 234//234 229//229 235//235
f 235//235 229//229 236//236
f 236//236 229//229 224//224
f 236//236 224//224 237//237
f 224//224 214//214 237//237
f 214//214 210//210 237//237
f 210//210 238//238 237//237
f 210//210 239//239 238//238
f 210//210 240//240 239//239
f 210//210 241//241 240//240
f 210//210 242//242 241//241
f 210//210 208//208 242//242
f 242//242 208//208 205//205
f 205//205 208//208 206//206
f 104//104 242//242 205//205
f 104//104 243//243 242//242
f 104//104 244//244 243//243
f 104//104 245//245 244//244
f 104//104 105//105 245//245
f 105//105 246//246 245//245
f 105//105 247//247 246//246
f 105//105 247//247 246//246
f 105//105 247//247 246//246
f 105//105 247//247 246//246
f 105//105 247//247 246//246
f 247//247 105//105 106//106
f 248//248 247//247 106//106
f 249//249 247//247 248//248
f 249//249 250//250 247//247
f 249//249 250//250 247//247
f 249//249 250//250 247//247
f 249//249 250//250 247//247
f 249//249 250//250 247//247
f 251//251 250//250 249//249
f 250//250 251//251 252//252
f 252//252 251//251 253//253
f 251//251 254//254 253//253
f 251//251 255//255 254//254
f 251//251 249//249 255//255
f 255//255 249//249 256//256
f 256//256 249//249 248//248
f 248//248 257//257 256//256
f 108//108 257//257 248//248
f 108//108 258//258 257//257
f 259//259 258//258 108//108
f 259//259 260//260 258//258
f 260//260 259//259 113//113
f 259//259 110//110 113//113
f 110//110 259//259 109//109
f 109//109 259//259 108//108
f 113//113 110//110 111//111
f 115//115 260//260 113//113
f 260//260 115//115 232//232
f 260//260 232//232 258//258
f 232//232 261//261 258//258
f 232//232 233//233 261//261
f 232//232 233//233 261//261
f 232//232 233//233 261//261
f 232//232 233//233 261//261
f 232//232 233//233 261//261
f 232//232 233//233 261//261
f 232//232 233//233 261//261
f 232//232 233//233 261//261
f 232//232 233//233 261//261
f 233//233 262//262 261//261
f 263//263 262//262 233//233
f 263//263 235//235 262//262
f 234//234 235//235 263//263
f 234//234 235//235 263//263
f 234//234 235//235 263//263
f 234//234 235//235 263//263
f 234//234 235//235 263//263
f 234//234 235//235 263//263
f 234//234 235//235 263//263
f 234//234 235//235 263//263
f 234//234 235//235 263//263
f 263//263 235//235 262//262
f 263//263 235//235 262//262
f 263//263 235//235 262//262
f 263//263 235//235 262//262
f 263//263 235//235 262//262
f 263//263 235//235 262//262
f 263//263 235//235 262//262
f 263//263 235//235 262//262
f 262//262 235//235 264//264
f 264//264 235//235 236//236
f 264//264 236//236 265//265
f 265//265 236//236 237//237
f 237//237 238//238 265//265
f 238//238 266//266 265//265
f 238//238 267//267 266//266
f 239//239 267//267 238//238
f 267//267 239//239 268//268
f 268//268 239//239 269//269
f 239//239 240//240 269//269
f 269//269 240//240 270//270
f 240//240 241//241 270//270
f 270//270 241//241 271//271
f 241//241 242//242 271//271
f 271//271 242//242 272//272
f 242//242 243//243 272//272
f 272//272 243//243 273//273
f 243//243 244//244 273//273
f 273//273 244//244 274//274
f 244//244 245//245 274//274
f 274//274 245//245 275//275
f 245//245 246//246 275//275
f 105//105 246//246 245//245
f 105//105 246//246 245//245
f 105//105 246//246 245//245
f 105//105 246//246 245//245
f 275//275 246//246 276//276
f 246//246 250//250 276//276
f 246//246 247//247 250//250
f 246//246 247//247 250//250
f 246//246 247//247 250//250
f 246//246 247//247 250//250
f 246//246 247//247 250//250
f 276//276 250//250 252//252
f 252//252 253//253 276//276
f 276//276 253//253 275//275
f 253//253 277//277 275//275
f 253//253 254//254 277//277
f 254//254 267//267 277//277
f 267//267 254//254 266//266
f 255//255 266//266 254//254
f 255//255 266//266 254//254
f 255//255 266//266 254//254
f 255//255 266//266 254//254
f 255//255 266//266 254//254
f 266//266 255//255 278//278
f 278//278 255//255 256//256
f 256//256 279//279 278//278
f 257//257 279//279 256//256
f 257//257 261//261 279//279
f 258//258 261//261 257//257
f 232//232 261//261 258//258
f 232//232 261//261 258//258
f 232//232 261//261 258//258
f 232//232 261//261 258//258
f 232//232 261//261 258//258
f 232//232 261//261 258//258
f 232//232 261//261 258//258
f 232//232 261//261 258//258
f 261//261 262//262 279//279
f 233//233 262//262 261//261
f 263//263 262//262 233//233
f 263//263 262//262 233//233
f 263//263 262//262 233//233
f 263//263 262//262 233//233
f 263//263 262//262 233//233
f 263//263 262//262 233//233
f 263//263 262//262 233//233
f 263//263 262//262 233//233
f 233//233 262//262 261//261
f 233//233 262//262 261//261
f 233//233 262//262 261//261
f 233//233 262//262 261//261
f 233//233 262//262 261//261
f 233//233 262//262 261//261
f 233//233 262//262 261//261
f 233//233 234//234 263//263
f 279//279 262//262 264//264
f 279//279 264//264 278//278
f 278//278 264//264 265//265
f 265//265 266//266 278//278
f 277//277 267//267 268//268
f 277//277 268//268 274//274
f 274//274 268//268 273//273
f 268//268 269//269 273//273
f 273//273 269//269 272//272
f 269//269 270//270 272//272
f 272//272 270//270 271//271
f 275//275 277//277 274//274
f 106//106 108//108 248//248
f 104//104 205//205 280//280
f 280//280 205//205 204//204
f 204//204 104//104 280//280
f 204//204 99//99 104//104
f 116//116 226//226 227//227
f 226//226 116//116 118//118
f 118//118 116//116 117//117
f 281//281 226//226 118//118
f 225//225 226//226 281//281
f 282//282 225//225 281//281
f 283//283 225//225 282//282
f 225//225 283//283 223//223
f 283//283 284//284 223//223
f 283//283 285//285 284//284
f 282//282 285//285 283//283
f 286//286 285//285 282//282
f 286//286 287//287 285//285
f 222//222 287//287 286//286
f 284//284 287//287 222//222
f 284//284 285//285 287//287
f 223//223 284//284 222//222
f 222//222 286//286 288//288
f 288//288 286//286 289//289
f 289//289 286//286 290//290
f 291//291 290//290 286//286
f 291//291 292//292 290//290
f 291//291 293//293 292//292
f 291//291 294//294 293//293
f 294//294 291//291 119//119
f 119//119 291//291 295//295
f 286//286 295//295 291//291
f 286//286 281//281 295//295
f 286//286 282//282 281//281
f 119//119 295//295 281//281
f 118//118 119//119 281//281
f 294//294 119//119 296//296
f 119//119 297//297 296//296
f 120//120 297//297 119//119
f 120//120 298//298 297//297
f 120//120 299//299 298//298
f 120//120 300//300 299//299
f 300//300 120//120 301//301
f 120//120 121//121 301//301
f 302//302 301//301 121//121
f 302//302 303//303 301//301
f 304//304 303//303 302//302
f 304//304 305//305 303//303
f 306//306 305//305 304//304
f 306//306 307//307 305//305
f 308//308 307//307 306//306
f 308//308 309//309 307//307
f 310//310 309//309 308//308
f 309//309 310//310 311//311
f 310//310 312//312 311//311
f 312//312 310//310 313//313
f 313//313 310//310 308//308
f 313//313 308//308 314//314
f 314//314 308//308 306//306
f 306//306 315//315 314//314
f 306//306 316//316 315//315
f 306//306 317//317 316//316
f 306//306 318//318 317//317
f 318//318 306//306 304//304
f 318//318 304//304 319//319
f 319//319 304//304 302//302
f 302//302 137//137 319//319
f 302//302 125//125 137//137
f 302//302 320//320 125//125
f 302//302 321//321 320//320
f 302//302 122//122 321//321
f 302//302 121//121 122//122
f 321//321 122//122 322//322
f 322//322 122//122 123//123
f 322//322 123//123 124//124
f 323//323 322//322 124//124
f 322//322 323//323 321//321
f 321//321 323//323 324//324
f 320//320 324//324 323//323
f 320//320 321//321 324//324
f 320//320 321//321 324//324
f 323//323 125//125 320//320
f 124//124 125//125 323//323
f 137//137 125//125 126//126
f 137//137 125//125 126//126
f 126//126 127//127 137//137
f 137//137 325//325 319//319
f 137//137 326//326 325//325
f 137//137 139//139 326//326
f 139//139 327//327 326//326
f 141//141 327//327 139//139
f 327//327 141//141 325//325
f 325//325 141//141 328//328
f 328//328 141//141 143//143
f 329//329 328//328 143//143
f 329//329 330//330 328//328
f 329//329 331//331 330//330
f 329//329 332//332 331//331
f 329//329 333//333 332//332
f 334//334 333//333 329//329
f 334//334 335//335 333//333
f 334//334 336//336 335//335
f 337//337 336//336 334//334
f 337//337 338//338 336//336
f 337//337 339//339 338//338
f 337//337 340//340 339//339
f 337//337 341//341 340//340
f 337//337 342//342 341//341
f 337//337 343//343 342//342
f 344//344 343//343 337//337
f 343//343 344//344 345//345
f 345//345 344//344 346//346
f 346//346 344//344 347//347
f 344//344 348//348 347//347
f 348//348 344//344 337//337
f 349//349 348//348 337//337
f 348//348 349//349 144//144
f 349//349 143//143 144//144
f 349//349 329//329 143//143
f 349//349 350//350 329//329
f 350//350 349//349 334//334
f 334//334 349//349 337//337
f 334//334 329//329 350//350
f 347//347 348//348 144//144
f 144//144 145//145 347//347
f 145//145 147//147 347//347
f 347//347 147//147 351//351
f 352//352 351//351 147//147
f 351//351 352//352 347//347
f 352//352 353//353 347//347
f 353//353 352//352 354//354
f 354//354 352//352 147//147
f 354//354 147//147 355//355
f 147//147 148//148 355//355
f 355//355 148//148 356//356
f 356//356 148//148 357//357
f 148//148 358//358 357//357
f 148//148 359//359 358//358
f 148//148 149//149 359//359
f 149//149 360//360 359//359
f 150//150 360//360 149//149
f 150//150 158//158 360//360
f 155//155 158//158 150//150
f 155//155 150//150 152//152
f 158//158 359//359 360//360
f 159//159 359//359 158//158
f 159//159 358//358 359//359
f 159//159 361//361 358//358
f 159//159 160//160 361//361
f 361//361 160//160 362//362
f 362//362 160//160 162//162
f 363//363 362//362 162//162
f 363//363 364//364 362//362
f 363//363 365//365 364//364
f 363//363 366//366 365//365
f 363//363 367//367 366//366
f 363//363 368//368 367//367
f 162//162 368//368 363//363
f 163//163 368//368 162//162
f 163//163 369//369 368//368
f 163//163 370//370 369//369
f 163//163 166//166 370//370
f 166//166 371//371 370//370
f 166//166 372//372 371//371
f 167//167 372//372 166//166
f 167//167 169//169 372//372
f 169//169 373//373 372//372
f 373//373 169//169 374//374
f 374//374 169//169 375//375
f 169//169 376//376 375//375
f 376//376 169//169 377//377
f 377//377 169//169 378//378
f 378//378 169//169 170//170
f 378//378 170//170 379//379
f 170//170 380//380 379//379
f 381//381 380//380 170//170
f 382//382 380//380 381//381
f 380//380 382//382 379//379
f 379//379 382//382 383//383
f 382//382 384//384 383//383
f 382//382 385//385 384//384
f 381//381 385//385 382//382
f 385//385 381//381 171//171
f 171//171 381//381 170//170
f 386//386 385//385 171//171
f 387//387 385//385 386//386
f 385//385 387//387 384//384
f 384//384 387//387 388//388
f 387//387 389//389 388//388
f 389//389 387//387 390//390
f 390//390 387//387 386//386
f 172//172 390//390 386//386
f 172//172 391//391 390//390
f 172//172 213//213 391//391
f 172//172 212//212 213//213
f 212//212 172//172 207//207
f 216//216 391//391 213//213
f 216//216 392//392 391//391
f 216//216 383//383 392//392
f 378//378 383//383 216//216
f 378//378 379//379 383//383
f 378//378 216//216 377//377
f 216//216 393//393 377//377
f 393//393 216//216 394//394
f 394//394 216//216 217//217
f 217//217 395//395 394//394
f 219//219 395//395 217//217
f 395//395 219//219 396//396
f 396//396 219//219 220//220
f 396//396 219//219 220//220
f 396//396 220//220 397//397
f 396//396 220//220 397//397
f 220//220 398//398 397//397
f 220//220 393//393 398//398
f 220//220 393//393 399//399
f 377//377 393//393 399//399
f 399//399 400//400 377//377
f 401//401 400//400 399//399
f 401//401 402//402 400//400
f 401//401 403//403 402//402
f 404//404 403//403 401//401
f 404//404 403//403 401//401
f 404//404 403//403 401//401
f 404//404 403//403 401//401
f 404//404 403//403 401//401
f 403//403 405//405 404//404
f 403//403 405//405 376//376
f 376//376 405//405 375//375
f 406//406 375//375 405//405
f 406//406 374//374 375//375
f 406//406 407//407 374//374
f 406//406 372//372 407//407
f 406//406 371//371 372//372
f 406//406 370//370 371//371
f 406//406 369//369 370//370
f 406//406 367//367 369//369
f 406//406 408//408 367//367
f 408//408 406//406 409//409
f 409//409 406//406 405//405
f 409//409 405//405 410//410
f 410//410 405//405 411//411
f 405//405 404//404 411//411
f 411//411 404//404 412//412
f 404//404 413//413 412//412
f 401//401 413//413 404//404
f 414//414 413//413 401//401
f 415//415 413//413 414//414
f 415//415 416//416 413//413
f 415//415 412//412 416//416
f 412//412 415//415 411//411
f 415//415 417//417 411//411
f 415//415 414//414 417//417
f 418//418 417//417 414//414
f 418//418 419//419 417//417
f 418//418 420//420 419//419
f 345//345 420//420 418//418
f 420//420 345//345 346//346
f 420//420 346//346 421//421
f 421//421 346//346 422//422
f 346//346 423//423 422//422
f 346//346 424//424 423//423
f 353//353 424//424 346//346
f 424//424 353//353 425//425
f 425//425 353//353 354//354
f 354//354 426//426 425//425
f 354//354 355//355 426//426
f 354//354 355//355 426//426
f 354//354 355//355 426//426
f 354//354 355//355 426//426
f 427//427 426//426 355//355
f 427//427 425//425 426//426
f 427//427 428//428 425//425
f 427//427 429//429 428//428
f 429//429 427//427 430//430
f 430//430 427//427 355//355
f 355//355 431//431 430//430
f 432//432 431//431 355//355
f 431//431 432//432 433//433
f 433//433 432//432 434//434
f 432//432 435//435 434//434
f 435//435 432//432 356//356
f 356//356 432//432 355//355
f 357//357 435//435 356//356
f 436//436 435//435 357//357
f 436//436 435//435 357//357
f 435//435 436//436 437//437
f 437//437 436//436 438//438
f 436//436 439//439 438//438
f 440//440 439//439 436//436
f 441//441 439//439 440//440
f 439//439 441//441 442//442
f 442//442 441//441 443//443
f 441//441 444//444 443//443
f 444//444 441//441 445//445
f 445//445 441//441 440//440
f 445//445 440//440 364//364
f 364//364 440//440 446//446
f 447//447 446//446 440//440
f 447//447 362//362 446//446
f 447//447 361//361 362//362
f 447//447 448//448 361//361
f 448//448 447//447 436//436
f 436//436 447//447 440//440
f 357//357 448//448 436//436
f 357//357 358//358 448//448
f 358//358 361//361 448//448
f 358//358 361//361 448//448
f 364//364 446//446 362//362
f 364//364 446//446 362//362
f 365//365 445//445 364//364
f 365//365 449//449 445//445
f 365//365 449//449 445//445
f 365//365 449//449 445//445
f 365//365 449//449 445//445
f 365//365 422//422 449//449
f 450//450 422//422 365//365
f 450//450 421//421 422//422
f 450//450 410//410 421//421
f 450//450 409//409 410//410
f 450//450 408//408 409//409
f 366//366 408//408 450//450
f 366//366 367//367 408//408
f 366//366 450//450 365//365
f 410//410 420//420 421//421
f 419//419 420//420 410//410
f 411//411 419//419 410//410
f 417//417 419//419 411//411
f 422//422 451//451 449//449
f 422//422 423//423 451//451
f 423//423 452//452 451//451
f 424//424 452//452 423//423
f 452//452 424//424 428//428
f 428//428 424//424 425//425
f 451//451 452//452 428//428
f 451//451 428//428 429//429
f 451//451 428//428 429//429
f 451//451 428//428 429//429
f 451//451 428//428 429//429
f 449//449 451//451 429//429
f 449//449 429//429 430//430
f 430//430 444//444 449//449
f 430//430 444//444 449//449
f 444//444 430//430 453//453
f 453//453 430//430 454//454
f 430//430 431//431 454//454
f 454//454 431//431 433//433
f 454//454 433//433 453//453
f 433//433 434//434 453//453
f 453//453 434//434 443//443
f 434//434 437//437 443//443
f 434//434 435//435 437//437
f 443//443 437//437 442//442
f 437//437 438//438 442//442
f 438//438 439//439 442//442
f 443//443 444//444 453//453
f 449//449 444//444 445//445
f 354//354 426//426 425//425
f 354//354 426//426 425//425
f 354//354 426//426 425//425
f 347//347 353//353 346//346
f 455//455 345//345 418//418
f 455//455 343//343 345//345
f 456//456 343//343 455//455
f 343//343 456//456 457//457
f 456//456 458//458 457//457
f 455//455 458//458 456//456
f 455//455 459//459 458//458
f 455//455 460//460 459//459
f 455//455 418//418 460//460
f 460//460 418//418 414//414
f 460//460 414//414 461//461
f 461//461 414//414 462//462
f 414//414 288//288 462//462
f 288//288 414//414 401//401
f 222//222 288//288 401//401
f 222//222 401//401 221//221
f 401//401 220//220 221//221
f 401//401 399//399 220//220
f 462//462 288//288 289//289
f 463//463 462//462 289//289
f 463//463 461//461 462//462
f 463//463 464//464 461//461
f 465//465 464//464 463//463
f 465//465 466//466 464//464
f 465//465 467//467 466//466
f 465//465 468//468 467//467
f 469//469 468//468 465//465
f 469//469 470//470 468//468
f 469//469 471//471 470//470
f 469//469 472//472 471//471
f 473//473 472//472 469//469
f 473//473 474//474 472//472
f 473//473 475//475 474//474
f 473//473 476//476 475//475
f 473//473 477//477 476//476
f 314//314 477//477 473//473
f 314//314 478//478 477//477
f 314//314 479//479 478//478
f 314//314 315//315 479//479
f 479//479 315//315 332//332
f 332//332 315//315 331//331
f 315//315 316//316 331//331
f 331//331 316//316 330//330
f 316//316 317//317 330//330
f 330//330 317//317 480//480
f 317//317 318//318 480//480
f 480//480 318//318 319//319
f 325//325 480//480 319//319
f 330//330 480//480 325//325
f 328//328 330//330 325//325
f 333//333 479//479 332//332
f 478//478 479//479 333//333
f 335//335 478//478 333//333
f 477//477 478//478 335//335
f 481//481 477//477 335//335
f 476//476 477//477 481//481
f 482//482 476//476 481//481
f 475//475 476//476 482//482
f 483//483 475//475 482//482
f 474//474 475//475 483//483
f 472//472 474//474 483//483
f 472//472 483//483 484//484
f 483//483 485//485 484//484
f 486//486 485//485 483//483
f 485//485 486//486 342//342
f 342//342 486//486 341//341
f 481//481 341//341 486//486
f 481//481 340//340 341//341
f 481//481 339//339 340//340
f 481//481 335//335 339//339
f 338//338 339//339 335//335
f 338//338 339//339 335//335
f 338//338 339//339 335//335
f 338//338 339//339 335//335
f 338//338 339//339 335//335
f 338//338 335//335 336//336
f 338//338 335//335 336//336
f 338//338 335//335 336//336
f 338//338 335//335 336//336
f 338//338 335//335 336//336
f 481//481 486//486 482//482
f 482//482 486//486 483//483
f 487//487 485//485 342//342
f 488//488 485//485 487//487
f 485//485 488//488 484//484
f 484//484 488//488 489//489
f 489//489 488//488 490//490
f 488//488 491//491 490//490
f 492//492 491//491 488//488
f 492//492 493//493 491//491
f 494//494 493//493 492//492
f 495//495 493//493 494//494
f 496//496 493//493 495//495
f 493//493 496//496 491//491
f 491//491 496//496 490//490
f 490//490 496//496 495//495
f 490//490 495//495 489//489
f 490//490 495//495 489//489
f 490//490 495//495 489//489
f 490//490 495//495 489//489
f 490//490 495//495 489//489
f 489//489 495//495 497//497
f 495//495 498//498 497//497
f 495//495 494//494 498//498
f 494//494 499//499 498//498
f 499//499 494//494 487//487
f 487//487 494//494 492//492
f 492//492 488//488 487//487
f 342//342 499//499 487//487
f 343//343 499//499 342//342
f 343//343 500//500 499//499
f 343//343 501//501 500//500
f 343//343 502//502 501//501
f 343//343 457//457 502//502
f 457//457 503//503 502//502
f 458//458 503//503 457//457
f 503//503 458//458 468//468
f 468//468 458//458 467//467
f 458//458 459//459 467//467
f 467//467 459//459 466//466
f 459//459 464//464 466//466
f 459//459 460//460 464//464
f 464//464 460//460 461//461
f 470//470 503//503 468//468
f 497//497 503//503 470//470
f 503//503 497//497 501//501
f 501//501 497//497 500//500
f 497//497 498//498 500//500
f 498//498 499//499 500//500
f 502//502 503//503 501//501
f 471//471 497//497 470//470
f 489//489 497//497 471//471
f 472//472 489//489 471//471
f 472//472 484//484 489//489
f 473//473 313//313 314//314
f 469//469 313//313 473//473
f 504//504 313//313 469//469
f 504//504 312//312 313//313
f 505//505 312//312 504//504
f 312//312 505//505 506//506
f 506//506 505//505 507//507
f 507//507 505//505 504//504
f 507//507 504//504 469//469
f 465//465 507//507 469//469
f 508//508 507//507 465//465
f 508//508 506//506 507//507
f 509//509 506//506 508//508
f 509//509 510//510 506//506
f 511//511 510//510 509//509
f 511//511 512//512 510//510
f 513//513 512//512 511//511
f 514//514 512//512 513//513
f 515//515 512//512 514//514
f 512//512 515//515 510//510
f 510//510 515//515 516//516
f 515//515 517//517 516//516
f 517//517 515//515 518//518
f 518//518 515//515 514//514
f 518//518 514//514 519//519
f 519//519 514//514 520//520
f 514//514 513//513 520//520
f 520//520 513//513 511//511
f 520//520 511//511 521//521
f 520//520 511//511 521//521
f 521//521 511//511 509//509
f 521//521 509//509 522//522
f 522//522 509//509 508//508
f 522//522 508//508 463//463
f 463//463 508//508 465//465
f 523//523 522//522 463//463
f 524//524 522//522 523//523
f 524//524 521//521 522//522
f 525//525 521//521 524//524
f 520//520 521//521 525//525
f 526//526 520//520 525//525
f 527//527 520//520 526//526
f 527//527 519//519 520//520
f 528//528 519//519 527//527
f 528//528 518//518 519//519
f 529//529 518//518 528//528
f 529//529 517//517 518//518
f 530//530 517//517 529//529
f 517//517 530//530 311//311
f 311//311 530//530 531//531
f 530//530 529//529 531//531
f 531//531 529//529 528//528
f 531//531 528//528 532//532
f 532//532 528//528 527//527
f 532//532 527//527 533//533
f 533//533 527//527 534//534
f 527//527 535//535 534//534
f 535//535 527//527 526//526
f 535//535 526//526 536//536
f 536//536 526//526 537//537
f 526//526 525//525 537//537
f 537//537 525//525 524//524
f 537//537 524//524 538//538
f 538//538 524//524 523//523
f 538//538 523//523 289//289
f 463//463 289//289 523//523
f 290//290 538//538 289//289
f 539//539 538//538 290//290
f 539//539 537//537 538//538
f 540//540 537//537 539//539
f 536//536 537//537 540//540
f 534//534 536//536 540//540
f 534//534 535//535 536//536
f 541//541 534//534 540//540
f 533//533 534//534 541//541
f 305//305 533//533 541//541
f 307//307 533//533 305//305
f 307//307 532//532 533//533
f 309//309 532//532 307//307
f 309//309 531//531 532//532
f 311//311 531//531 309//309
f 311//311 531//531 309//309
f 305//305 541//541 303//303
f 303//303 541//541 293//293
f 541//541 540//540 293//293
f 293//293 540//540 292//292
f 540//540 539//539 292//292
f 292//292 539//539 290//290
f 303//303 293//293 301//301
f 300//300 301//301 293//293
f 300//300 301//301 293//293
f 300//300 293//293 294//294
f 300//300 293//293 294//294
f 300//300 294//294 542//542
f 294//294 543//543 542//542
f 294//294 544//544 543//543
f 294//294 296//296 544//544
f 544//544 296//296 545//545
f 545//545 296//296 546//546
f 296//296 547//547 546//546
f 297//297 547//547 296//296
f 297//297 548//548 547//547
f 297//297 549//549 548//548
f 297//297 550//550 549//549
f 297//297 298//298 550//550
f 298//298 551//551 550//550
f 298//298 552//552 551//551
f 298//298 553//553 552//552
f 298//298 554//554 553//553
f 298//298 299//299 554//554
f 555//555 554//554 299//299
f 556//556 554//554 555//555
f 554//554 556//556 553//553
f 556//556 557//557 553//553
f 558//558 557//557 556//556
f 558//558 559//559 557//557
f 558//558 560//560 559//559
f 560//560 558//558 542//542
f 300//300 542//542 558//558
f 300//300 558//558 561//561
f 558//558 556//556 561//561
f 561//561 556//556 562//562
f 556//556 563//563 562//562
f 556//556 555//555 563//563
f 563//563 555//555 564//564
f 564//564 555//555 299//299
f 300//300 564//564 299//299
f 300//300 561//561 564//564
f 564//564 561//561 563//563
f 563//563 561//561 562//562
f 565//565 560//560 542//542
f 566//566 560//560 565//565
f 566//566 567//567 560//560
f 568//568 567//567 566//566
f 569//569 567//567 568//568
f 559//559 567//567 569//569
f 567//567 559//559 560//560
f 552//552 559//559 569//569
f 557//557 559//559 552//552
f 553//553 557//557 552//552
f 551//551 552//552 569//569
f 568//568 551//551 569//569
f 566//566 551//551 568//568
f 551//551 566//566 570//570
f 570//570 566//566 565//565
f 570//570 565//565 571//571
f 571//571 565//565 572//572
f 565//565 573//573 572//572
f 542//542 573//573 565//565
f 542//542 574//574 573//573
f 542//542 575//575 574//574
f 542//542 543//543 575//575
f 576//576 575//575 543//543
f 575//575 576//576 545//545
f 545//545 576//576 544//544
f 544//544 576//576 543//543
f 546//546 575//575 545//545
f 547//547 575//575 546//546
f 575//575 547//547 574//574
f 547//547 548//548 574//574
f 574//574 548//548 573//573
f 548//548 549//549 573//573
f 573//573 549//549 572//572
f 549//549 577//577 572//572
f 577//577 549//549 550//550
f 570//570 577//577 550//550
f 571//571 577//577 570//570
f 572//572 577//577 571//571
f 550//550 551//551 570//570
f 516//516 517//517 311//311
f 506//506 516//516 311//311
f 510//510 516//516 506//506
f 311//311 312//312 506//506
f 413//413 416//416 412//412
f 368//368 369//369 367//367
f 372//372 373//373 407//407
f 374//374 407//407 373//373
f 578//578 403//403 376//376
f 579//579 403//403 578//578
f 403//403 579//579 402//402
f 402//402 579//579 580//580
f 579//579 578//578 580//580
f 578//578 377//377 580//580
f 578//578 376//376 377//377
f 578//578 376//376 377//377
f 578//578 376//376 377//377
f 578//578 376//376 377//377
f 578//578 377//377 580//580
f 578//578 377//377 580//580
f 578//578 377//377 580//580
f 402//402 580//580 377//377
f 402//402 580//580 377//377
f 402//402 580//580 377//377
f 402//402 580//580 377//377
f 402//402 377//377 400//400
f 402//402 377//377 400//400
f 402//402 377//377 400//400
f 402//402 377//377 400//400
f 398//398 393//393 394//394
f 394//394 396//396 398//398
f 395//395 396//396 394//394
f 396//396 397//397 398//398
f 218//218 219//219 217//217
f 383//383 384//384 392//392
f 384//384 388//388 392//392
f 392//392 388//388 391//391
f 388//388 389//389 391//391
f 391//391 389//389 390//390
f 172//172 386//386 171//171
f 581//581 327//327 325//325
f 327//327 581//581 326//326
f 325//325 326//326 581//581
f 325//325 326//326 581//581
f 325//325 326//326 581//581
f 325//325 326//326 581//581
f 325//325 326//326 581//581
f 186//186 133//133 131//131
f 186//186 153//153 133//133
f 186//186 153//153 133//133
f 176//176 174//174 175//175
f 176//176 177//177 184//184
f 134//134 133//133 140//140
f 134//134 140//140 138//138
f 135//135 130//130 582//582
f 135//135 130//130 582//582
f 132//132 582//582 130//130
f 135//135 582//582 132//132
f 583//583 584//584 585//585
f 584//584 583//583 586//586
f 583//583 587//587 586//586
f 585//585 587//587 583//583
f 588//588 587//587 585//585
f 588//588 586//586 587//587
f 585//585 586//586 588//588
f 584//584 586//586 585//585
f 589//589 590//590 591//591
f 592//592 590//590 589//589
f 592//592 591//591 590//590
f 589//589 591//591 592//592
f 593//593 594//594 595//595
f 593//593 596//596 594//594
f 597//597 596//596 593//593
f 596//596 597//597 598//598
f 597//597 599//599 598//598
f 599//599 597//597 600//600
f 597//597 601//601 600//600
f 601//601 597//597 602//602
f 602//602 597//597 593//593
f 593//593 603//603 602//602
f 593//593 604//604 603//603
f 595//595 604//604 593//593
f 595//595 594//594 604//604
f 594//594 605//605 604//604
f 594//594 606//606 605//605
f 606//606 594//594 596//596
f 607//607 606//606 596//596
f 608//608 606//606 607//607
f 608//608 609//609 606//606
f 608//608 610//610 609//609
f 610//610 608//608 611//611
f 608//608 612//612 611//611
f 612//612 608//608 613//613
f 608//608 614//614 613//613
f 608//608 615//615 614//614
f 608//608 607//607 615//615
f 607//607 616//616 615//615
f 607//607 598//598 616//616
f 596//596 598//598 607//607
f 616//616 598//598 617//617
f 617//617 598//598 605//605
f 603//603 605//605 598//598
f 603//603 604//604 605//605
f 603//603 598//598 599//599
f 603//603 599//599 618//618
f 619//619 618//618 599//599
f 619//619 601//601 618//618
f 619//619 620//620 601//601
f 621//621 620//620 619//619
f 620//620 621//621 622//622
f 622//622 621//621 623//623
f 624//624 623//623 621//621
f 624//624 625//625 623//623
f 624//624 626//626 625//625
f 624//624 615//615 626//626
f 624//624 614//614 615//615
f 613//613 614//614 624//624
f 627//627 613//613 624//624
f 613//613 627//627 628//628
f 628//628 627//627 629//629
f 627//627 619//619 629//629
f 627//627 621//621 619//619
f 621//621 627//627 624//624
f 629//629 619//619 599//599
f 629//629 599//599 630//630
f 630//630 599//599 600//600
f 600//600 620//620 630//630
f 601//601 620//620 600//600
f 630//630 620//620 622//622
f 629//629 630//630 622//622
f 623//623 629//629 622//622
f 628//628 629//629 623//623
f 623//623 625//625 628//628
f 628//628 625//625 631//631
f 631//631 625//625 626//626
f 615//615 631//631 626//626
f 632//632 631//631 615//615
f 613//613 631//631 632//632
f 613//613 628//628 631//631
f 612//612 613//613 632//632
f 612//612 632//632 616//616
f 615//615 616//616 632//632
f 612//612 616//616 617//617
f 612//612 617//617 633//633
f 606//606 633//633 617//617
f 609//609 633//633 606//606
f 609//609 611//611 633//633
f 610//610 611//611 609//609
f 612//612 633//633 611//611
f 606//606 617//617 605//605
f 601//601 634//634 618//618
f 634//634 601//601 602//602
f 618//618 634//634 602//602
f 602//602 603//603 618//618
# 1412 faces, 0 coords texture

# End of File